('Trying page ', 'User:Maschen/Schr\xc3\xb6dinger equation (exact solutions)')
('Trying page ', 'User:Maxime.lesur')
('Trying page ', 'User:Michagal/Sandbox')
('Trying page ', 'User:Milton Greedman')
('Trying page ', 'User:Mjirina/sandbox')
('Trying page ', 'User:MRFS/sandbox')
nowiki tags detected
enwiki User:MRFS/sandbox not saved, no changes
('Trying page ', 'User:MTR/Sandbox')
('Trying page ', 'User:Nayru25/sandbox/A Style Guide for Boolean Connectives')
nowiki tags detected
complete math formula is inside nowiki
complete math formula is inside nowiki
enwiki User:Nayru25/sandbox/A Style Guide for Boolean Connectives not saved, rejected due to nowiki tags
('Trying page ', 'User:Niallrobinson/sandbox')
('Trying page ', 'User:Nic bor')
('Trying page ', 'User:Nimdil')
('Trying page ', 'User:Noblesp/sandbox')
nowiki tags detected
('Trying page ', 'User:Orimosenzon/notes')
nowiki tags detected
('Trying page ', 'User:Pasco-Hans/sandbox')
enwiki User:Pasco-Hans/sandbox template cite web not replaced, rendering is different
('Trying page ', 'User:PAStheLoD/sandbox')
nowiki tags detected
('Trying page ', 'User:Pete k 1948/Sandbox')
('Trying page ', 'User:Peter2013/sandbox')
('Trying page ', 'User:PetrusJohannes/sandbox')
nowiki tags detected
('Trying page ', 'User:Pfafrich/Blahtex/$ bugs')
('Trying page ', 'User:Pfafrich/Blahtex/% bugs')
('Trying page ', 'User:PhS/CTL')
nowiki tags detected
complete math formula is inside nowiki
complete math formula is inside nowiki
complete math formula is inside nowiki
complete math formula is inside nowiki
complete math formula is inside nowiki
complete math formula is inside nowiki
enwiki User:PhS/CTL not saved, rejected due to nowiki tags
('Trying page ', 'User:Pramod2048/sandbox')
('Trying page ', 'User:Prof McCarthy/Linear independence')
('Trying page ', 'User:Prof McCarthy/Potential Energy')
('Trying page ', 'User:Purgy Purgatorio/sandbox')
nowiki tags detected
('Trying page ', 'User:Pyenos/January, 2007')
('Trying page ', 'User:Rajagiryes')
('Trying page ', 'User:Rangi42')
('Trying page ', 'User:RJGray/Math')
('Trying page ', 'User:RJGray/Sandbox5')
('Trying page ', 'User:RJGray/Sandboxc')
('Trying page ', 'User:RJGray/Sandboxcantor')
nowiki tags detected
enwiki User:RJGray/Sandboxcantor template cite book not replaced, rendering is different
('Trying page ', 'User:RJGray/Sandboxcantor1')
('Trying page ', 'User:RJGray/Sandboxcantor5')
('Trying page ', 'User:RJGray/Sandbox Mengelehre')
('Trying page ', 'User:RLAPLAZA/sandbox')
('Trying page ', 'User:RM-UR22')
('Trying page ', 'User:Robinh/Sandbox')
('Trying page ', 'User:RogierBrussee/sandbox')
nowiki tags detected
('Trying page ', 'User:Roshan220195/sandbox')
nowiki tags detected
('Trying page ', 'User:Rvachaspati/sandbox')
nowiki tags detected
('Trying page ', 'User:Rybu/Burau')
('Trying page ', 'User:Saeger')
nowiki tags detected
('Trying page ', 'User:Sagie/sandbox/RLC')
enwiki User:Sagie/sandbox/RLC template cite journal not replaced, rendering is different
enwiki User:Sagie/sandbox/RLC not saved, no changes
('Trying page ', 'User:Salix alba/Bolometric correction')
nowiki tags detected
enwiki User:Salix alba/Bolometric correction template cite journal not replaced, rendering is different
enwiki User:Salix alba/Bolometric correction not saved, no changes
('Trying page ', 'User:Salix alba/External ray')
nowiki tags detected
complete math formula is inside nowiki
complete math formula is inside nowiki
complete math formula is inside nowiki
complete math formula is inside nowiki
enwiki User:Salix alba/External ray not saved, rejected due to nowiki tags
('Trying page ', 'User:Salix alba/Information dimension')
('Trying page ', 'User:Salix alba/maths2018')
nowiki tags detected
one of the math tags is inside nowiki
enwiki User:Salix alba/maths2018 not saved, rejected due to nowiki tags
('Trying page ', 'User:Sam Derbyshire/Weierstrass-Enneper parametrization')
('Trying page ', 'User:Sckavassalis/Markov dissipative evolution')
nowiki tags detected
('Trying page ', 'User:Sesquihypercerebral/sandbox')
('Trying page ', 'User:Setiawan.Shi/sandbox')
nowiki tags detected
('Trying page ', 'User:Shabbychef/Sandbox')
('Trying page ', 'User:Shenyuan36/sandbox')
nowiki tags detected
('Trying page ', 'User:Silly rabbit/Sandbox/Exterior algebra')
nowiki tags detected
('Trying page ', 'User:Spinningspark/Work in progress/List of polynomials used in filter design')
enwiki User:Spinningspark/Work in progress/List of polynomials used in filter design not saved, no changes
('Trying page ', 'User:Stca74/Sheaf/Example')
('Trying page ', 'User:Stoerzer/sandbox')
nowiki tags detected
('Trying page ', 'User:Suman Chatterjee DHEP/sandbox')
nowiki tags detected
('Trying page ', 'User talk:182.186.70.145')
nowiki tags detected
enwiki User talk:182.186.70.145 template fullurl:Inflation not replaced, rendering is different
enwiki User talk:182.186.70.145 template fullurl:Inflation not replaced, rendering is different
enwiki User talk:182.186.70.145 template fullurl:Inflation not replaced, rendering is different
enwiki User talk:182.186.70.145 not saved, no changes
('Trying page ', 'User talk:78.150.63.89')
nowiki tags detected
('Trying page ', 'User talk:Ancheta Wis/f')
nowiki tags detected
complete math formula is inside nowiki
complete math formula is inside nowiki
complete math formula is inside nowiki
enwiki User talk:Ancheta Wis/f not saved, rejected due to nowiki tags
('Trying page ', 'User talk:Arthur Rubin/Archive 2013')
nowiki tags detected
enwiki User talk:Arthur Rubin/Archive 2013 template oldid not replaced, rendering is different
enwiki User talk:Arthur Rubin/Archive 2013 template oldid not replaced, rendering is different
enwiki User talk:Arthur Rubin/Archive 2013 template fullurl:Civil Nuclear Constabulary not replaced, rendering is different
enwiki User talk:Arthur Rubin/Archive 2013 template fullurl:12 (number) not replaced, rendering is different
enwiki User talk:Arthur Rubin/Archive 2013 template fullurl:Tea Party protests not replaced, rendering is different
enwiki User talk:Arthur Rubin/Archive 2013 template fullurl:74 Runs not replaced, rendering is different
enwiki User talk:Arthur Rubin/Archive 2013 template fullurl:Sachin the maestro not replaced, rendering is different
('Trying page ', 'User talk:Bdmy')
nowiki tags detected
one of the math tags is inside nowiki
one of the math tags is inside nowiki
one of the math tags is inside nowiki
one of the math tags is inside nowiki
one of the math tags is inside nowiki
one of the math tags is inside nowiki
one of the math tags is inside nowiki
complete math formula is inside nowiki
one of the math tags is inside nowiki
one of the math tags is inside nowiki
complete math formula is inside nowiki
one of the math tags is inside nowiki
one of the math tags is inside nowiki
one of the math tags is inside nowiki
one of the math tags is inside nowiki
one of the math tags is inside nowiki
one of the math tags is inside nowiki
one of the math tags is inside nowiki
one of the math tags is inside nowiki
one of the math tags is inside nowiki
one of the math tags is inside nowiki
one of the math tags is inside nowiki
one of the math tags is inside nowiki
enwiki User talk:Bdmy template fullurl:Lorentz space not replaced, rendering is different
enwiki User talk:Bdmy template fullurl:Interpolation space not replaced, rendering is different
enwiki User talk:Bdmy template fullurl:Interpolation space not replaced, rendering is different
enwiki User talk:Bdmy template fullurl:Absolute convergence not replaced, rendering is different
enwiki User talk:Bdmy template fullurl:Reflexive space not replaced, rendering is different
enwiki User talk:Bdmy template fullurl:Banach space not replaced, rendering is different
enwiki User talk:Bdmy not saved, rejected due to nowiki tags
('Trying page ', 'User talk:Chessfan/work1')
nowiki tags detected
('Trying page ', 'User talk:Cheung Chun Ping')
('Trying page ', 'User talk:Cuzkatzimhut')
nowiki tags detected
enwiki User talk:Cuzkatzimhut template Quote box not replaced, rendering is different
('Trying page ', 'User talk:David J Wilson')
nowiki tags detected
enwiki User talk:David J Wilson not saved, no changes
('Trying page ', 'User talk:D.Lazard/Archive 2')
nowiki tags detected
('Trying page ', 'User talk:Dolphin51')
nowiki tags detected
enwiki User talk:Dolphin51 template fullurl:Enid Lyons not replaced, rendering is different
('Trying page ', 'User talk:Dr pda/archive3')
nowiki tags detected
complete math formula is inside nowiki
enwiki User talk:Dr pda/archive3 not saved, rejected due to nowiki tags
('Trying page ', 'User talk:Edokter/Archive 6')
nowiki tags detected
('Trying page ', 'User talk:EmilJ/Archive 4')
nowiki tags detected
one of the math tags is inside nowiki
enwiki User talk:EmilJ/Archive 4 not saved, rejected due to nowiki tags
('Trying page ', 'User talk:F=q(E+v^B)/Archive 1')
nowiki tags detected
('Trying page ', 'User talk:Fuzzyeric')
('Trying page ', 'User talk:Gah4')
nowiki tags detected
('Trying page ', 'User talk:Gnathan87')
nowiki tags detected
('Trying page ', 'User talk:Honyok75')
nowiki tags detected
complete math formula is inside nowiki
complete math formula is inside nowiki
complete math formula is inside nowiki
complete math formula is inside nowiki
complete math formula is inside nowiki
complete math formula is inside nowiki
complete math formula is inside nowiki
complete math formula is inside nowiki
enwiki User talk:Honyok75 not saved, rejected due to nowiki tags
('Trying page ', 'User talk:Icek~enwiki')
nowiki tags detected
enwiki User talk:Icek~enwiki template Citation not replaced, rendering is different
enwiki User talk:Icek~enwiki template citation not replaced, rendering is different
('Trying page ', 'User talk:Jimbo Wales/Archive 166')
nowiki tags detected
('Trying page ', 'User talk:Jimbo Wales/Archive 224')
nowiki tags detected
enwiki User talk:Jimbo Wales/Archive 224 template red not replaced, rendering is different
enwiki User talk:Jimbo Wales/Archive 224 template Center not replaced, rendering is different
enwiki User talk:Jimbo Wales/Archive 224 template resize not replaced, rendering is different
('Trying page ', 'User talk:JRSpriggs/Archive 6')
nowiki tags detected
('Trying page ', 'User talk:KSmrq')
nowiki tags detected
('Trying page ', 'User talk:Lambiam/Archive 3')
nowiki tags detected
('Trying page ', 'User talk:Mct mht')
nowiki tags detected
('Trying page ', 'User talk:MikeEnnen')
('Trying page ', 'User talk:Music1201/Archive 2')
nowiki tags detected
('Trying page ', 'User talk:Mystaker1')
nowiki tags detected
('Trying page ', 'User talk:Mythealias/Archive 1')
nowiki tags detected
('Trying page ', 'User talk:Nageh/mathJax')
nowiki tags detected
complete math formula is inside nowiki
complete math formula is inside nowiki
complete math formula is inside nowiki
complete math formula is inside nowiki
complete math formula is inside nowiki
one of the math tags is inside nowiki
complete math formula is inside nowiki
complete math formula is inside nowiki
complete math formula is inside nowiki
enwiki User talk:Nageh/mathJax not saved, rejected due to nowiki tags
('Trying page ', 'User talk:Nbarth/Archive 2009')
nowiki tags detected
one of the math tags is inside nowiki
enwiki User talk:Nbarth/Archive 2009 not saved, rejected due to nowiki tags
('Trying page ', 'User talk:Netscott/Archive-03')
nowiki tags detected
('Trying page ', 'User talk:Oleg Alexandrov/Archive8')
nowiki tags detected
complete math formula is inside nowiki
complete math formula is inside nowiki
enwiki User talk:Oleg Alexandrov/Archive8 not saved, rejected due to nowiki tags
('Trying page ', 'User talk:PBadali')
nowiki tags detected
enwiki User talk:PBadali template Querylink not replaced, rendering is different
enwiki User talk:PBadali template unblock reviewed not replaced, rendering is different
('Trying page ', 'User talk:PMajer')
nowiki tags detected
('Trying page ', 'User talk:Quondum/sandbox/Trial ideas')
('Trying page ', 'User talk:RandomP/archive 1')
('Trying page ', 'User talk:R.e.b./Archive 6')
nowiki tags detected
complete math formula is inside nowiki
enwiki User talk:R.e.b./Archive 6 template fullurl:Schur class not replaced, rendering is different
enwiki User talk:R.e.b./Archive 6 template fullurl:Carathéodory's extension theorem not replaced, rendering is different
enwiki User talk:R.e.b./Archive 6 template fullurl:Hardy–Littlewood tauberian theorem not replaced, rendering is different
enwiki User talk:R.e.b./Archive 6 template fullurl:Petersson algebra not replaced, rendering is different
enwiki User talk:R.e.b./Archive 6 template Quote box not replaced, rendering is different
enwiki User talk:R.e.b./Archive 6 template fullurl:Mahlo cardinal not replaced, rendering is different
enwiki User talk:R.e.b./Archive 6 template fullurl:Mahlo cardinal not replaced, rendering is different
enwiki User talk:R.e.b./Archive 6 template fullurl:Glossary of set theory not replaced, rendering is different
enwiki User talk:R.e.b./Archive 6 template fullurl:List of notation used in Principia Mathematica not replaced, rendering is different
enwiki User talk:R.e.b./Archive 6 not saved, rejected due to nowiki tags
('Trying page ', 'User talk:RJGray')
nowiki tags detected
one of the math tags is inside nowiki
one of the math tags is inside nowiki
one of the math tags is inside nowiki
enwiki User talk:RJGray template ivmbox not replaced, rendering is different
enwiki User talk:RJGray not saved, rejected due to nowiki tags
('Trying page ', 'User talk:RJGray/Sandboxcantor1')
nowiki tags detected
one of the math tags is inside nowiki
enwiki User talk:RJGray/Sandboxcantor1 not saved, rejected due to nowiki tags
('Trying page ', 'User talk:Rschwieb')
nowiki tags detected
('Trying page ', 'User talk:Salix alba/Archive 9')
nowiki tags detected
complete math formula is inside nowiki
enwiki User talk:Salix alba/Archive 9 not saved, rejected due to nowiki tags
('Trying page ', 'User talk:Selfstudier')
nowiki tags detected
enwiki User talk:Selfstudier template Quote box not replaced, rendering is different
('Trying page ', 'User talk:Steg55')
('Trying page ', 'User talk:Tsirel')
nowiki tags detected
enwiki User talk:Tsirel template #if: CataBotTsirel not replaced, rendering is different
enwiki User talk:Tsirel not saved, no changes
('Trying page ', 'User talk:T.Stokke')
('Trying page ', 'User talk:Typeships17')
nowiki tags detected
('Trying page ', 'User talk:Wcherowi/Archive 4')
nowiki tags detected
complete math formula is inside nowiki
enwiki User talk:Wcherowi/Archive 4 template math not replaced, rendering is different
enwiki User talk:Wcherowi/Archive 4 template math not replaced, rendering is different
enwiki User talk:Wcherowi/Archive 4 template tlxs not replaced, rendering is different
enwiki User talk:Wcherowi/Archive 4 not saved, rejected due to nowiki tags
('Trying page ', 'User talk:Yanwen')
('Trying page ', 'User:Tamkin04iut')
nowiki tags detected
('Trying page ', 'User:Tetrahedron93/Set')
('Trying page ', 'User:Thepigdog/Currys Paradox')
('Trying page ', 'User:Thepigdog/Deductive Lambda Calculus')
('Trying page ', 'User:Thepigdog/Evaluation strategy')
('Trying page ', 'User:Thepigdog/Implicit Variable Semantics')
('Trying page ', 'User:Thepigdog/Inductive probabilities')
nowiki tags detected
('Trying page ', 'User:Thepigdog/Lambda Calculus - Church encoding')
nowiki tags detected
('Trying page ', 'User:Thepigdog/Lambda Calculus conversion to let expression')
('Trying page ', 'User:Thepigdog/Lambda calculus definition')
('Trying page ', 'User:Thepigdog/Lambda Calculus (old)')
('Trying page ', 'User:Thepigdog/Lambda Calculus - standard definition')
('Trying page ', 'User:Thepigdog/Lambda lifting')
('Trying page ', 'User:Thepigdog/Play')
('Trying page ', 'User:Thepigdog/Play3')
('Trying page ', 'User:Thepigdog/Prediction from data')
('Trying page ', 'User:Thepigdog/Relational meta programming')
('Trying page ', 'User:Thepigdog/Relational model of imperative programming')
nowiki tags detected
enwiki User:Thepigdog/Relational model of imperative programming template cite book not replaced, rendering is different
('Trying page ', 'User:Thepigdog/Relational programming')
nowiki tags detected
('Trying page ', 'User:Thepigdog/Value container')
('Trying page ', 'User:Thepigdog/Values')
('Trying page ', 'User:Thepigdog/Value sets')
('Trying page ', 'User:Threelovemonkeys/Sandbox')
('Trying page ', 'User:Tikai/math')
('Trying page ', 'User:Tmhoang81/Dynamic stability of discrete systems')
nowiki tags detected
('Trying page ', 'User:Tmhoang81/Elastic stability')
('Trying page ', 'User:Tmhoang81/Energy Principles')
('Trying page ', 'User:Tmhoang81/Instability analysis of composite materials')
('Trying page ', 'User:Tomruen/archive9')
nowiki tags detected
enwiki User:Tomruen/archive9 template resize not replaced, rendering is different
('Trying page ', 'User:Toni 001/sandbox')
nowiki tags detected
('Trying page ', 'User:Toolnut')
('Trying page ', 'User:Toolnut/sandbox')
nowiki tags detected
enwiki User:Toolnut/sandbox template citation not replaced, rendering is different
('Trying page ', 'User:Torchflame/Math/logix')
('Trying page ', 'User:Torchflame/Math/SetProof')
('Trying page ', 'User:Tuc62662/Dynamic Similarity (Reynolds &amp; Womersley Numbers)')
nowiki tags detected
enwiki User:Tuc62662/Dynamic Similarity (Reynolds &amp; Womersley Numbers) not saved, no changes
('Trying page ', 'User:Tunas.p/opacity air')
('Trying page ', 'User:Vahagn Davtyan')
nowiki tags detected
('Trying page ', 'User:Vahagn Davtyan/\xd5\xa1\xd5\xbe\xd5\xa1\xd5\xa6\xd5\xa1\xd6\x80\xd5\xaf\xd5\xb2')
nowiki tags detected
('Trying page ', 'User:Vanished user fijw983kjaslkekfhj45/DTFT Tables')
('Trying page ', 'User:Vfp15')
('Trying page ', 'User:Virginia-American/Sandbox/Arithmetic function')
nowiki tags detected
('Trying page ', 'User:Wesspacito')
('Trying page ', 'User:Wikfr/math')
('Trying page ', 'User:Wikiuser56')
('Trying page ', 'User:Wirkstoff/sandbox')
nowiki tags detected
('Trying page ', 'User:Wismijlater/sandbox')
nowiki tags detected
complete math formula is inside nowiki
enwiki User:Wismijlater/sandbox template row of table of mathematical symbols not replaced, rendering is different
enwiki User:Wismijlater/sandbox not saved, rejected due to nowiki tags
('Trying page ', 'User:YohanN7/sandbox')
nowiki tags detected
enwiki User:YohanN7/sandbox template cite book not replaced, rendering is different
enwiki User:YohanN7/sandbox template cite journal not replaced, rendering is different
enwiki User:YohanN7/sandbox template cite book not replaced, rendering is different
enwiki User:YohanN7/sandbox template cite book not replaced, rendering is different
enwiki User:YohanN7/sandbox template cite journal not replaced, rendering is different
enwiki User:YohanN7/sandbox template cite journal not replaced, rendering is different
enwiki User:YohanN7/sandbox template cite journal not replaced, rendering is different
enwiki User:YohanN7/sandbox template cite journal not replaced, rendering is different
('Trying page ', 'User:Zackron')
('Trying page ', 'User:Zanella84/sandbox')
nowiki tags detected
enwiki User:Zanella84/sandbox not saved, no changes
('Trying page ', 'User:Zeptomoon/Desk')
nowiki tags detected
enwiki User:Zeptomoon/Desk template cite journal not replaced, rendering is different
('Trying page ', 'User:Zxanphorian/PrivateSandBox')
('Trying page ', 'Vaccine efficacy')
enwiki Vaccine efficacy not saved, no changes
('Trying page ', 'Valuation ring')
nowiki tags detected
('Trying page ', 'Variational method (quantum mechanics)')
('Trying page ', 'Variety (universal algebra)')
nowiki tags detected
('Trying page ', 'Vector calculus')
('Trying page ', 'Vector clock')
nowiki tags detected
('Trying page ', 'Vector model of the atom')
('Trying page ', 'Vector-valued function')
('Trying page ', 'Virasoro conformal block')
nowiki tags detected
('Trying page ', 'Volkenborn integral')
('Trying page ', 'Volkswagen Lupo')
('Trying page ', 'Voronoi diagram')
nowiki tags detected
enwiki Voronoi diagram not saved, no changes
('Trying page ', 'Vorticity confinement')
nowiki tags detected
('Trying page ', "Vuong's closeness test")
('Trying page ', 'Wasted vote')
('Trying page ', 'Wave packet')
('Trying page ', 'Weierstrass\xe2\x80\x93Enneper parameterization')
('Trying page ', "Weierstrass's elliptic functions")
nowiki tags detected
('Trying page ', 'Weight function')
('Trying page ', 'Weil restriction')
('Trying page ', 'Weingarten equations')
('Trying page ', 'Weyl\xe2\x80\x93Brauer matrices')
('Trying page ', 'Wheeler\xe2\x80\x93DeWitt equation')
nowiki tags detected
('Trying page ', "Whitehead's point-free geometry")
nowiki tags detected
('Trying page ', 'Whitney extension theorem')
('Trying page ', 'Wieferich prime')
nowiki tags detected
enwiki Wieferich prime template Citation not replaced, rendering is different
enwiki Wieferich prime template cite book not replaced, rendering is different
enwiki Wieferich prime template cite journal not replaced, rendering is different
enwiki Wieferich prime template citation not replaced, rendering is different
enwiki Wieferich prime not saved, no changes
('Trying page ', 'Wiener\xe2\x80\x93L\xc3\xa9vy theorem')
('Trying page ', "Wikipedia:Bureaucrats' noticeboard/Archive 6")
nowiki tags detected
('Trying page ', 'Wikipedia:Files for deletion/2012 January 16')
nowiki tags detected
enwiki Wikipedia:Files for deletion/2012 January 16 template fullurl:File:Wadems2.jpg not replaced, rendering is different
enwiki Wikipedia:Files for deletion/2012 January 16 template fullurl:Special:Log not replaced, rendering is different
enwiki Wikipedia:Files for deletion/2012 January 16 template fullurl:File:Wadems3.jpg not replaced, rendering is different
enwiki Wikipedia:Files for deletion/2012 January 16 template fullurl:Special:Log not replaced, rendering is different
enwiki Wikipedia:Files for deletion/2012 January 16 template fullurl:File:WalkerLA.jpg not replaced, rendering is different
enwiki Wikipedia:Files for deletion/2012 January 16 template fullurl:Special:Log not replaced, rendering is different
enwiki Wikipedia:Files for deletion/2012 January 16 template fullurl:File:Wally Page Rotterdam Bar 2007 small.jpg not replaced, rendering is different
enwiki Wikipedia:Files for deletion/2012 January 16 template fullurl:Special:Log not replaced, rendering is different
enwiki Wikipedia:Files for deletion/2012 January 16 template fullurl:File:Pissysmurf.jpg not replaced, rendering is different
enwiki Wikipedia:Files for deletion/2012 January 16 template fullurl:Special:Log not replaced, rendering is different
enwiki Wikipedia:Files for deletion/2012 January 16 template fullurl:File:Waterparkcollegecrest2.jpg not replaced, rendering is different
enwiki Wikipedia:Files for deletion/2012 January 16 template fullurl:Special:Log not replaced, rendering is different
enwiki Wikipedia:Files for deletion/2012 January 16 template fullurl:File:Weapon-on-chasis.jpg not replaced, rendering is different
enwiki Wikipedia:Files for deletion/2012 January 16 template fullurl:Special:Log not replaced, rendering is different
enwiki Wikipedia:Files for deletion/2012 January 16 template fullurl:File:Weatherby-lake-housesx600.jpg not replaced, rendering is different
enwiki Wikipedia:Files for deletion/2012 January 16 template fullurl:Special:Log not replaced, rendering is different
enwiki Wikipedia:Files for deletion/2012 January 16 template fullurl:File:Webdevwkstn.png not replaced, rendering is different
enwiki Wikipedia:Files for deletion/2012 January 16 template fullurl:Special:Log not replaced, rendering is different
enwiki Wikipedia:Files for deletion/2012 January 16 template fullurl:File:Welcome user akira otomo.jpg not replaced, rendering is different
enwiki Wikipedia:Files for deletion/2012 January 16 template fullurl:Special:Log not replaced, rendering is different
enwiki Wikipedia:Files for deletion/2012 January 16 template fullurl:File:WeldingImage.jpg not replaced, rendering is different
enwiki Wikipedia:Files for deletion/2012 January 16 template fullurl:Special:Log not replaced, rendering is different
enwiki Wikipedia:Files for deletion/2012 January 16 template fullurl:File:Weltmap.png not replaced, rendering is different
enwiki Wikipedia:Files for deletion/2012 January 16 template fullurl:Special:Log not replaced, rendering is different
enwiki Wikipedia:Files for deletion/2012 January 16 template fullurl:File:Westall2.jpg not replaced, rendering is different
enwiki Wikipedia:Files for deletion/2012 January 16 template fullurl:Special:Log not replaced, rendering is different
enwiki Wikipedia:Files for deletion/2012 January 16 template fullurl:File:Whiskey Ring 02.jpg not replaced, rendering is different
enwiki Wikipedia:Files for deletion/2012 January 16 template fullurl:Special:Log not replaced, rendering is different
enwiki Wikipedia:Files for deletion/2012 January 16 template fullurl:File:White Dragon of Mercia.png not replaced, rendering is different
enwiki Wikipedia:Files for deletion/2012 January 16 template fullurl:Special:Log not replaced, rendering is different
enwiki Wikipedia:Files for deletion/2012 January 16 template fullurl:File:White Spacer551x31.jpg not replaced, rendering is different
enwiki Wikipedia:Files for deletion/2012 January 16 template fullurl:Special:Log not replaced, rendering is different
enwiki Wikipedia:Files for deletion/2012 January 16 template fullurl:File:White throated Kingfisher ashayh.JPG not replaced, rendering is different
enwiki Wikipedia:Files for deletion/2012 January 16 template fullurl:Special:Log not replaced, rendering is different
enwiki Wikipedia:Files for deletion/2012 January 16 template fullurl:File:Wiki TBI2-t.jpg not replaced, rendering is different
enwiki Wikipedia:Files for deletion/2012 January 16 template fullurl:Special:Log not replaced, rendering is different
enwiki Wikipedia:Files for deletion/2012 January 16 template fullurl:File:Wiki TBI1-t.jpg not replaced, rendering is different
enwiki Wikipedia:Files for deletion/2012 January 16 template fullurl:Special:Log not replaced, rendering is different
enwiki Wikipedia:Files for deletion/2012 January 16 template fullurl:File:WikiFigEsSizeFunction.PNG not replaced, rendering is different
enwiki Wikipedia:Files for deletion/2012 January 16 template fullurl:Special:Log not replaced, rendering is different
enwiki Wikipedia:Files for deletion/2012 January 16 template fullurl:File:Wikinonconform.png not replaced, rendering is different
enwiki Wikipedia:Files for deletion/2012 January 16 template fullurl:Special:Log not replaced, rendering is different
enwiki Wikipedia:Files for deletion/2012 January 16 template fullurl:File:Wayne Criss.JPG not replaced, rendering is different
enwiki Wikipedia:Files for deletion/2012 January 16 template fullurl:Special:Log not replaced, rendering is different
enwiki Wikipedia:Files for deletion/2012 January 16 template fullurl:File:Paparazziblaine.jpg not replaced, rendering is different
enwiki Wikipedia:Files for deletion/2012 January 16 template fullurl:Special:Log not replaced, rendering is different
enwiki Wikipedia:Files for deletion/2012 January 16 template fullurl:File:Equation for relative humidity.JPG not replaced, rendering is different
enwiki Wikipedia:Files for deletion/2012 January 16 template fullurl:Special:Log not replaced, rendering is different
enwiki Wikipedia:Files for deletion/2012 January 16 template fullurl:File:Satpressure.JPG not replaced, rendering is different
enwiki Wikipedia:Files for deletion/2012 January 16 template fullurl:Special:Log not replaced, rendering is different
enwiki Wikipedia:Files for deletion/2012 January 16 template fullurl:File:Freemol2.JPG not replaced, rendering is different
enwiki Wikipedia:Files for deletion/2012 January 16 template fullurl:Special:Log not replaced, rendering is different
enwiki Wikipedia:Files for deletion/2012 January 16 template fullurl:File:Continuum2.JPG not replaced, rendering is different
enwiki Wikipedia:Files for deletion/2012 January 16 template fullurl:Special:Log not replaced, rendering is different
enwiki Wikipedia:Files for deletion/2012 January 16 template fullurl:File:Transition12.JPG not replaced, rendering is different
enwiki Wikipedia:Files for deletion/2012 January 16 template fullurl:Special:Log not replaced, rendering is different
enwiki Wikipedia:Files for deletion/2012 January 16 template fullurl:File:Transition1.JPG not replaced, rendering is different
enwiki Wikipedia:Files for deletion/2012 January 16 template fullurl:Special:Log not replaced, rendering is different
enwiki Wikipedia:Files for deletion/2012 January 16 template fullurl:File:Quaff.jpg not replaced, rendering is different
enwiki Wikipedia:Files for deletion/2012 January 16 template fullurl:Special:Log not replaced, rendering is different
enwiki Wikipedia:Files for deletion/2012 January 16 template fullurl:File:Mentmore groundfloor.jpg not replaced, rendering is different
enwiki Wikipedia:Files for deletion/2012 January 16 template fullurl:Special:Log not replaced, rendering is different
enwiki Wikipedia:Files for deletion/2012 January 16 template fullurl:File:Mentmore overhead 2.jpg not replaced, rendering is different
enwiki Wikipedia:Files for deletion/2012 January 16 template fullurl:Special:Log not replaced, rendering is different
enwiki Wikipedia:Files for deletion/2012 January 16 template fullurl:File:MentmoreRooflessexpirement.jpg not replaced, rendering is different
enwiki Wikipedia:Files for deletion/2012 January 16 template fullurl:Special:Log not replaced, rendering is different
enwiki Wikipedia:Files for deletion/2012 January 16 template fullurl:File:Matt Doudera.jpg not replaced, rendering is different
enwiki Wikipedia:Files for deletion/2012 January 16 template fullurl:Special:Log not replaced, rendering is different
enwiki Wikipedia:Files for deletion/2012 January 16 template fullurl:File:Manzetti Mechanism.jpg not replaced, rendering is different
enwiki Wikipedia:Files for deletion/2012 January 16 template fullurl:Special:Log not replaced, rendering is different
enwiki Wikipedia:Files for deletion/2012 January 16 template fullurl:File:Salinosporamide A building blocks.png not replaced, rendering is different
enwiki Wikipedia:Files for deletion/2012 January 16 template fullurl:Special:Log not replaced, rendering is different
enwiki Wikipedia:Files for deletion/2012 January 16 template fullurl:File:Hbf4.gif not replaced, rendering is different
enwiki Wikipedia:Files for deletion/2012 January 16 template fullurl:Special:Log not replaced, rendering is different
enwiki Wikipedia:Files for deletion/2012 January 16 template fullurl:File:7-PET.svg not replaced, rendering is different
enwiki Wikipedia:Files for deletion/2012 January 16 template fullurl:Special:Log not replaced, rendering is different
enwiki Wikipedia:Files for deletion/2012 January 16 template fullurl:File:Supermushroom.png not replaced, rendering is different
enwiki Wikipedia:Files for deletion/2012 January 16 template fullurl:Special:Log not replaced, rendering is different
enwiki Wikipedia:Files for deletion/2012 January 16 template fullurl:File:Pacman-cutscene.png not replaced, rendering is different
enwiki Wikipedia:Files for deletion/2012 January 16 template fullurl:Special:Log not replaced, rendering is different
enwiki Wikipedia:Files for deletion/2012 January 16 template fullurl:File:Headshot web.jpg not replaced, rendering is different
enwiki Wikipedia:Files for deletion/2012 January 16 template fullurl:Special:Log not replaced, rendering is different
enwiki Wikipedia:Files for deletion/2012 January 16 template fullurl:File:Purple Rainbows Band Icon Small.PNG not replaced, rendering is different
enwiki Wikipedia:Files for deletion/2012 January 16 template fullurl:Special:Log not replaced, rendering is different
enwiki Wikipedia:Files for deletion/2012 January 16 template fullurl:File:Purple Rainbows Band Icon.PNG not replaced, rendering is different
enwiki Wikipedia:Files for deletion/2012 January 16 template fullurl:Special:Log not replaced, rendering is different
enwiki Wikipedia:Files for deletion/2012 January 16 template fullurl:File:Mudcrow Media.png not replaced, rendering is different
enwiki Wikipedia:Files for deletion/2012 January 16 template fullurl:Special:Log not replaced, rendering is different
enwiki Wikipedia:Files for deletion/2012 January 16 template fullurl:File:SNX11 HD 2.png not replaced, rendering is different
enwiki Wikipedia:Files for deletion/2012 January 16 template fullurl:Special:Log not replaced, rendering is different
enwiki Wikipedia:Files for deletion/2012 January 16 template fullurl:File:Society_57_Logo_Original.jpg not replaced, rendering is different
enwiki Wikipedia:Files for deletion/2012 January 16 template fullurl:Special:Log not replaced, rendering is different
enwiki Wikipedia:Files for deletion/2012 January 16 template fullurl:File:Willie Nelson ~(Blue Jean)WM.jpg not replaced, rendering is different
enwiki Wikipedia:Files for deletion/2012 January 16 template fullurl:Special:Log not replaced, rendering is different
enwiki Wikipedia:Files for deletion/2012 January 16 template fullurl:File:Windows version Line up.gif not replaced, rendering is different
enwiki Wikipedia:Files for deletion/2012 January 16 template fullurl:Special:Log not replaced, rendering is different
enwiki Wikipedia:Files for deletion/2012 January 16 template fullurl:File:Wlan arch.JPG not replaced, rendering is different
enwiki Wikipedia:Files for deletion/2012 January 16 template fullurl:Special:Log not replaced, rendering is different
enwiki Wikipedia:Files for deletion/2012 January 16 template fullurl:File:Woodsball marksman 03pl.JPG not replaced, rendering is different
enwiki Wikipedia:Files for deletion/2012 January 16 template fullurl:Special:Log not replaced, rendering is different
enwiki Wikipedia:Files for deletion/2012 January 16 template fullurl:File:Woodsball marksman 08pl.JPG not replaced, rendering is different
enwiki Wikipedia:Files for deletion/2012 January 16 template fullurl:Special:Log not replaced, rendering is different
enwiki Wikipedia:Files for deletion/2012 January 16 template fullurl:File:Worldmapidea10.png not replaced, rendering is different
enwiki Wikipedia:Files for deletion/2012 January 16 template fullurl:Special:Log not replaced, rendering is different
enwiki Wikipedia:Files for deletion/2012 January 16 template fullurl:File:Wot logo small.jpg not replaced, rendering is different
enwiki Wikipedia:Files for deletion/2012 January 16 template fullurl:Special:Log not replaced, rendering is different
enwiki Wikipedia:Files for deletion/2012 January 16 template fullurl:File:WPLEB.gif not replaced, rendering is different
enwiki Wikipedia:Files for deletion/2012 January 16 template fullurl:Special:Log not replaced, rendering is different
enwiki Wikipedia:Files for deletion/2012 January 16 template fullurl:File:WPLTLBTF.jpg not replaced, rendering is different
enwiki Wikipedia:Files for deletion/2012 January 16 template fullurl:Special:Log not replaced, rendering is different
enwiki Wikipedia:Files for deletion/2012 January 16 template fullurl:File:WPLTLUTF.jpg not replaced, rendering is different
enwiki Wikipedia:Files for deletion/2012 January 16 template fullurl:Special:Log not replaced, rendering is different
enwiki Wikipedia:Files for deletion/2012 January 16 template fullurl:File:Wpsclogo.gif not replaced, rendering is different
enwiki Wikipedia:Files for deletion/2012 January 16 template fullurl:Special:Log not replaced, rendering is different
enwiki Wikipedia:Files for deletion/2012 January 16 template fullurl:File:Wynberg Boys&#39; High School Badge .jpg not replaced, rendering is different
enwiki Wikipedia:Files for deletion/2012 January 16 template fullurl:Special:Log not replaced, rendering is different
enwiki Wikipedia:Files for deletion/2012 January 16 template fullurl:File:XlinkRecessive.png not replaced, rendering is different
enwiki Wikipedia:Files for deletion/2012 January 16 template fullurl:Special:Log not replaced, rendering is different
enwiki Wikipedia:Files for deletion/2012 January 16 template fullurl:File:XTubeLogoLARGE.jpg not replaced, rendering is different
enwiki Wikipedia:Files for deletion/2012 January 16 template fullurl:Special:Log not replaced, rendering is different
enwiki Wikipedia:Files for deletion/2012 January 16 template fullurl:File:Yasser Harrak Srifi.jpg not replaced, rendering is different
enwiki Wikipedia:Files for deletion/2012 January 16 template fullurl:Special:Log not replaced, rendering is different
enwiki Wikipedia:Files for deletion/2012 January 16 template fullurl:File:Yellowstone Vert Pan.JPG not replaced, rendering is different
enwiki Wikipedia:Files for deletion/2012 January 16 template fullurl:Special:Log not replaced, rendering is different
enwiki Wikipedia:Files for deletion/2012 January 16 template fullurl:File:Youssef.gif not replaced, rendering is different
enwiki Wikipedia:Files for deletion/2012 January 16 template fullurl:Special:Log not replaced, rendering is different
enwiki Wikipedia:Files for deletion/2012 January 16 template fullurl:File:Zodiacpan.jpg not replaced, rendering is different
enwiki Wikipedia:Files for deletion/2012 January 16 template fullurl:Special:Log not replaced, rendering is different
enwiki Wikipedia:Files for deletion/2012 January 16 template fullurl:File:ZollerYaleNet.jpg not replaced, rendering is different
enwiki Wikipedia:Files for deletion/2012 January 16 template fullurl:Special:Log not replaced, rendering is different
enwiki Wikipedia:Files for deletion/2012 January 16 template fullurl:File:ZScreen-Main-Screenshot.jpg not replaced, rendering is different
enwiki Wikipedia:Files for deletion/2012 January 16 template fullurl:Special:Log not replaced, rendering is different
enwiki Wikipedia:Files for deletion/2012 January 16 template fullurl:File:Ea-games.png not replaced, rendering is different
enwiki Wikipedia:Files for deletion/2012 January 16 template fullurl:Special:Log not replaced, rendering is different
enwiki Wikipedia:Files for deletion/2012 January 16 template fullurl:File:3519770299 2fe54cdc1c z.jpg not replaced, rendering is different
enwiki Wikipedia:Files for deletion/2012 January 16 template fullurl:Special:Log not replaced, rendering is different
enwiki Wikipedia:Files for deletion/2012 January 16 template fullurl:File:695 in Maryland.jpg not replaced, rendering is different
enwiki Wikipedia:Files for deletion/2012 January 16 template fullurl:Special:Log not replaced, rendering is different
enwiki Wikipedia:Files for deletion/2012 January 16 template fullurl:File:8.28.07JephLoeb.jpg not replaced, rendering is different
enwiki Wikipedia:Files for deletion/2012 January 16 template fullurl:Special:Log not replaced, rendering is different
enwiki Wikipedia:Files for deletion/2012 January 16 template fullurl:File:9.3.07GrandLuxGardenStatePlaza.JPG not replaced, rendering is different
enwiki Wikipedia:Files for deletion/2012 January 16 template fullurl:Special:Log not replaced, rendering is different
enwiki Wikipedia:Files for deletion/2012 January 16 template fullurl:File:Abbey comparison.jpg not replaced, rendering is different
enwiki Wikipedia:Files for deletion/2012 January 16 template fullurl:Special:Log not replaced, rendering is different
enwiki Wikipedia:Files for deletion/2012 January 16 template fullurl:File:AbhijeetSaha (2).jpg not replaced, rendering is different
enwiki Wikipedia:Files for deletion/2012 January 16 template fullurl:Special:Log not replaced, rendering is different
enwiki Wikipedia:Files for deletion/2012 January 16 template fullurl:File:Adamasquicky.jpg not replaced, rendering is different
enwiki Wikipedia:Files for deletion/2012 January 16 template fullurl:Special:Log not replaced, rendering is different
enwiki Wikipedia:Files for deletion/2012 January 16 template fullurl:File:Roselli and DeSimone.gif not replaced, rendering is different
enwiki Wikipedia:Files for deletion/2012 January 16 template fullurl:Special:Log not replaced, rendering is different
enwiki Wikipedia:Files for deletion/2012 January 16 template fullurl:File:Friern Barnet library Oct 2011.jpg not replaced, rendering is different
enwiki Wikipedia:Files for deletion/2012 January 16 template fullurl:Special:Log not replaced, rendering is different
enwiki Wikipedia:Files for deletion/2012 January 16 template fullurl:File:National Assembly.jpeg not replaced, rendering is different
enwiki Wikipedia:Files for deletion/2012 January 16 template fullurl:Special:Log not replaced, rendering is different
enwiki Wikipedia:Files for deletion/2012 January 16 template fullurl:File:CFL BCL Jersey 2004.png not replaced, rendering is different
enwiki Wikipedia:Files for deletion/2012 January 16 template fullurl:Special:Log not replaced, rendering is different
enwiki Wikipedia:Files for deletion/2012 January 16 template fullurl:File:La Cicala FilmPoster.jpeg not replaced, rendering is different
enwiki Wikipedia:Files for deletion/2012 January 16 template fullurl:Special:Log not replaced, rendering is different
enwiki Wikipedia:Files for deletion/2012 January 16 template fullurl:File:XlinkRecessive.svg not replaced, rendering is different
enwiki Wikipedia:Files for deletion/2012 January 16 template fullurl:Special:Log not replaced, rendering is different
('Trying page ', 'Wikipedia:Help desk/Archives/2012 September 28')
nowiki tags detected
one of the math tags is inside nowiki
complete math formula is inside nowiki
enwiki Wikipedia:Help desk/Archives/2012 September 28 not saved, rejected due to nowiki tags
('Trying page ', 'Wikipedia:Reference desk archive/Mathematics/2006 September 12')
nowiki tags detected
('Trying page ', 'Wikipedia:Reference desk archive/Mathematics/2006 September 15')
nowiki tags detected
('Trying page ', 'Wikipedia:Reference desk archive/Mathematics/2006 September 18')
nowiki tags detected
('Trying page ', 'Wikipedia:Reference desk archive/Mathematics/2006 September 20')
nowiki tags detected
('Trying page ', 'Wikipedia:Reference desk archive/Mathematics/February 2006')
nowiki tags detected
('Trying page ', 'Wikipedia:Reference desk archive/Mathematics/March 2006')
nowiki tags detected
complete math formula is inside nowiki
enwiki Wikipedia:Reference desk archive/Mathematics/March 2006 not saved, rejected due to nowiki tags
('Trying page ', 'Wikipedia:Reference desk archive/Mathematics/May 2006')
nowiki tags detected
complete math formula is inside nowiki
complete math formula is inside nowiki
complete math formula is inside nowiki
complete math formula is inside nowiki
complete math formula is inside nowiki
complete math formula is inside nowiki
enwiki Wikipedia:Reference desk archive/Mathematics/May 2006 not saved, rejected due to nowiki tags
('Trying page ', 'Wikipedia:Reference desk archive/Science/November 2005')
nowiki tags detected
('Trying page ', 'Wikipedia:Reference desk/Archives/Computing/2008 May 26')
nowiki tags detected
('Trying page ', 'Wikipedia:Reference desk/Archives/Humanities/2010 March 12')
nowiki tags detected
