jawiki 自然数 not saved, no changes
jawiki スピン軌道相互作用 not saved, no changes
jawiki 逆格子空間 not saved, no changes
arwiki تحكم إتش إنفينتي not saved, no changes
arwiki صحة (المنطق) not saved, no changes
arwiki قائمة الرموز الرياضية بحسب الموضوع not saved, no changes
arwiki استكمام لانداو not saved, no changes
bgwiki Събиране на матрици not saved: Page [[wikipedia:bg:Събиране на матрици]] was not saved.
cswiki Bézierova křivka not saved, no changes
cswiki Nápověda:Matematické vzorce not saved, rejected due to nowiki tags
cswiki Metoda nejmenších čtverců not saved, rejected due to nowiki tags
cswiki Jazyk (logika) not saved, no changes
cswiki Diskuse s wikipedistou:Petr Karel not saved, rejected due to nowiki tags
cswiki Integrální transformace not saved, no changes
cswiki Univerzální algebra not saved, no changes
cswiki Axiomatická teorie množin not saved, rejected due to nowiki tags
cswiki Needlemanův–Wunschův algoritmus not saved, no changes
cswiki Smithův–Watermanův algoritmus not saved, no changes
dawiki Weber–Fechners lov not saved, no changes
dawiki Bruger:Pkj61/Relationel algebra not saved, rejected due to nowiki tags
dawiki Skabelon:Oiint/doc not saved, rejected due to nowiki tags
dewiki Analysis not saved, no changes
dewiki Algebraische Zahl not saved, no changes
dewiki Chomsky-Hierarchie not saved, rejected due to nowiki tags
dewiki Kommutativgesetz not saved, no changes
dewiki Algebra not saved, no changes
dewiki Gram-Schmidtsches Orthogonalisierungsverfahren not saved, no changes
dewiki Parität (Physik) not saved, no changes
dewiki Multiplikation not saved, no changes
dewiki Divisor not saved, no changes
dewiki Diskussion:Diskrete Mathematik not saved, no changes
dewiki Hilfe:TeX not saved, rejected due to nowiki tags
dewiki Quadratwurzel not saved, no changes
dewiki Hyperbel (Mathematik) not saved, no changes
dewiki Quadratische Gleichung not saved, no changes
dewiki Diskussion:Stetigkeit not saved, rejected due to nowiki tags
dewiki Stammfunktion not saved, no changes
dewiki Atomorbital not saved, no changes
dewiki Diskussion:Diskrete Fourier-Transformation not saved, no changes
dewiki Riemannscher Abbildungssatz not saved, no changes
dewiki Lokal konstante Funktion not saved, no changes
dewiki Farbvalenz not saved, no changes
dewiki Orthodrome not saved, no changes
dewiki Produkt (Mathematik) not saved, no changes
dewiki Automorphismus not saved, no changes
dewiki Modul (Mathematik) not saved, no changes
dewiki Parabel (Mathematik) not saved, no changes
dewiki Mersenne-Twister not saved, rejected due to nowiki tags
dewiki Nabla-Operator not saved, no changes
dewiki Diskussion:Banachraum not saved, no changes
dewiki Additive Funktion not saved, no changes
dewiki Gruppenhomomorphismus not saved, no changes
dewiki Positive und negative Zahlen not saved, no changes
dewiki Diskussion:Zahlenmenge not saved, no changes
dewiki Skalarfeld not saved, no changes
dewiki Komplementsystem not saved, no changes
dewiki Projektive Geometrie not saved, no changes
dewiki Lie-Klammer not saved, no changes
dewiki Spezielle lineare Gruppe not saved, no changes
dewiki Zustand (Quantenmechanik) not saved, rejected due to nowiki tags
dewiki Konvergenzgeschwindigkeit not saved, no changes
dewiki Portal Diskussion:Mathematik/Archiv/Archiv5 not saved, rejected due to nowiki tags
dewiki Mathematische Struktur not saved, no changes
dewiki Flavour not saved, no changes
dewiki Untervektorraum not saved, no changes
dewiki Elliptische Kurve not saved, no changes
dewiki Hermitescher Operator not saved, no changes
dewiki Nullvektor not saved, no changes
dewiki Riemannsche Fläche not saved, no changes
dewiki Distribution (Mathematik) not saved, no changes
dewiki Algebra über einem Körper not saved, no changes
dewiki Lösungsmenge not saved, no changes
dewiki Voigtsche Notation not saved, rejected due to nowiki tags
dewiki Vollständiger Raum not saved, rejected due to nowiki tags
dewiki Einbettung (Mathematik) not saved, no changes
dewiki Linearform not saved, no changes
dewiki Diskussion:Begriffslogik/Archiv not saved: Edit to page [[wikipedia:de:Diskussion:Begriffslogik/Archiv]] failed:
Editing restricted by {{bots}}, {{nobots}} or site's equivalent of {{in use}} template
dewiki Hyperebene not saved, no changes
dewiki Festigkeitslehre not saved, rejected due to nowiki tags
dewiki Diskussion:Lp-Raum not saved, no changes
dewiki Gödelnummer not saved, no changes
dewiki Diskussion:Hermitescher Operator not saved, no changes
dewiki Matrizenmultiplikation not saved, rejected due to nowiki tags
dewiki Evaneszenz not saved, no changes
dewiki Diskussion:Quaternion not saved, rejected due to nowiki tags
dewiki Prähilbertraum not saved, no changes
dewiki Dreiecksmatrix not saved, no changes
dewiki Satz von Fubini not saved, no changes
dewiki Besselsche Differentialgleichung not saved, rejected due to nowiki tags
dewiki Relationale Algebra not saved, rejected due to nowiki tags
dewiki Funktionenraum not saved, no changes
dewiki Zweitor not saved, no changes
dewiki Substitution (Mathematik) not saved, no changes
dewiki Satz von Pascal not saved, no changes
dewiki Gozintograph not saved, no changes
dewiki Needleman-Wunsch-Algorithmus not saved, no changes
dewiki Diskussion:Funktional not saved, no changes
dewiki Diskussion:Fassbrause not saved, no changes
dewiki Subfakultät not saved, no changes
dewiki Smith-Waterman-Algorithmus not saved, no changes
dewiki Schema (algebraische Geometrie) not saved, no changes
dewiki Diskussion:Kreis not saved, no changes
dewiki K-Theorie not saved, no changes
dewiki Formale Potenzreihe not saved, no changes
dewiki Zustandsraumdarstellung not saved, no changes
dewiki Absolut stetige Funktion not saved, no changes
dewiki Duale Zahl not saved, no changes
dewiki Diskussion:Satz von Fubini not saved, no changes
dewiki Faktorisierung von Polynomen not saved, no changes
dewiki Identitätsgleichung not saved, no changes
dewiki Portal Diskussion:Mathematik/Archiv/Archiv2 not saved, rejected due to nowiki tags
dewiki Diskussion:Spektrum (Operatortheorie) not saved, no changes
dewiki Witt-Algebra not saved, no changes
dewiki Benutzer Diskussion:Tilla not saved, rejected due to nowiki tags
dewiki Arctan2 not saved, rejected due to nowiki tags
dewiki Kompaktifizierung not saved, no changes
dewiki Transversale Isotropie not saved, no changes
dewiki Kolmogoroff-Raum not saved, no changes
dewiki Analytische Fortsetzung not saved, rejected due to nowiki tags
dewiki Kreiskette not saved, no changes
dewiki Traktrix not saved, rejected due to nowiki tags
dewiki Diskussion:Irrationale Zahl not saved, rejected due to nowiki tags
dewiki Benutzer Diskussion:KV 28/Archiv 1 not saved, rejected due to nowiki tags
dewiki Wikipedia:Fragen zur Wikipedia/Archiv/2005/Dezember/3 not saved, rejected due to nowiki tags
dewiki Diskussion:Global Positioning System/Archiv/1 not saved, no changes
dewiki GPS-Technik not saved, no changes
dewiki Diskussion:Ideal (Ringtheorie) not saved, rejected due to nowiki tags
dewiki Hadamard-Matrix not saved, no changes
dewiki Ersatzschaltungen des Bipolartransistors not saved, no changes
dewiki Sortenlogik not saved, rejected due to nowiki tags
dewiki Diskussion:Hexadezimalsystem/Archiv/1 not saved: Edit to page [[wikipedia:de:Diskussion:Hexadezimalsystem/Archiv/1]] failed:
Editing restricted by {{bots}}, {{nobots}} or site's equivalent of {{in use}} template
dewiki Antoine-Gleichung not saved, no changes
dewiki Gotoh-Algorithmus not saved, no changes
dewiki Harmonischer Oszillator (Quantenmechanik) not saved, no changes
dewiki Stufe (Algebra) not saved, rejected due to nowiki tags
dewiki Binäre Option not saved, no changes
dewiki Benutzer Diskussion:Usquam/Archiv not saved, rejected due to nowiki tags
dewiki Diskussion:Aussagenlogik/Archiv not saved: Edit to page [[wikipedia:de:Diskussion:Aussagenlogik/Archiv]] failed:
Editing restricted by {{bots}}, {{nobots}} or site's equivalent of {{in use}} template
dewiki Benutzer Diskussion:Hans555/Archiv1 not saved, rejected due to nowiki tags
dewiki Kryptographische Hashfunktion not saved, no changes
dewiki Hofstadter-Folge not saved, no changes
dewiki Diskussion:Differenzenquotient/Archiv/1 not saved: Edit to page [[wikipedia:de:Diskussion:Differenzenquotient/Archiv/1]] failed:
Editing restricted by {{bots}}, {{nobots}} or site's equivalent of {{in use}} template
dewiki Diskussion:Kelvin/Archiv not saved: Edit to page [[wikipedia:de:Diskussion:Kelvin/Archiv]] failed:
Editing restricted by {{bots}}, {{nobots}} or site's equivalent of {{in use}} template
dewiki Resonanztransformator not saved, no changes
dewiki Quartische Gleichung not saved, rejected due to nowiki tags
dewiki Portal:Mathematik/Qualitätssicherung/Archiv/2008/November not saved: Edit to page [[wikipedia:de:Portal:Mathematik/Qualitätssicherung/Archiv/2008/November]] failed:
Editing restricted by {{bots}}, {{nobots}} or site's equivalent of {{in use}} template
dewiki Diskussion:Vektorraum/Archiv not saved: Edit to page [[wikipedia:de:Diskussion:Vektorraum/Archiv]] failed:
Editing restricted by {{bots}}, {{nobots}} or site's equivalent of {{in use}} template
dewiki Portal:Mathematik/Qualitätssicherung/Archiv/2008/Dezember not saved: Edit to page [[wikipedia:de:Portal:Mathematik/Qualitätssicherung/Archiv/2008/Dezember]] failed:
Editing restricted by {{bots}}, {{nobots}} or site's equivalent of {{in use}} template
dewiki Diskussion:Infinite-Monkey-Theorem/Archiv/2009 not saved: Edit to page [[wikipedia:de:Diskussion:Infinite-Monkey-Theorem/Archiv/2009]] failed:
Editing restricted by {{bots}}, {{nobots}} or site's equivalent of {{in use}} template
dewiki Benutzer Diskussion:Lady Whistler not saved, rejected due to nowiki tags
dewiki Benutzer:Ernsts/sandbox not saved, rejected due to nowiki tags
dewiki Constant Proportion Portfolio Insurance not saved, no changes
dewiki Diskussion:Matrix (Mathematik)/Archiv/1 not saved: Edit to page [[wikipedia:de:Diskussion:Matrix (Mathematik)/Archiv/1]] failed:
Editing restricted by {{bots}}, {{nobots}} or site's equivalent of {{in use}} template
dewiki Portal Diskussion:Mathematik/Archiv/2009/2 not saved: Edit to page [[wikipedia:de:Portal Diskussion:Mathematik/Archiv/2009/2]] failed:
Editing restricted by {{bots}}, {{nobots}} or site's equivalent of {{in use}} template
dewiki Benutzer:Hightower74/Spielwiese not saved, no changes
dewiki Benutzer Diskussion:FlügelRad not saved, rejected due to nowiki tags
dewiki Benutzer Diskussion:Freimut Bahlo/Archiv not saved, rejected due to nowiki tags
dewiki Benutzer Diskussion:Hannibal21/Archiv not saved, rejected due to nowiki tags
dewiki Benutzer Diskussion:Hermux/Archiv not saved, rejected due to nowiki tags
dewiki Benutzer Diskussion:Conan174 not saved, rejected due to nowiki tags
dewiki Diskussion:Mengenlehre/Archiv not saved: Edit to page [[wikipedia:de:Diskussion:Mengenlehre/Archiv]] failed:
Editing restricted by {{bots}}, {{nobots}} or site's equivalent of {{in use}} template
dewiki Diskussion:Faltung (Mathematik)/Archiv not saved: Edit to page [[wikipedia:de:Diskussion:Faltung (Mathematik)/Archiv]] failed:
Editing restricted by {{bots}}, {{nobots}} or site's equivalent of {{in use}} template
dewiki Benutzer Diskussion:Wingtip not saved, rejected due to nowiki tags
dewiki Diskussion:Dijkstra-Algorithmus/Archiv not saved: Edit to page [[wikipedia:de:Diskussion:Dijkstra-Algorithmus/Archiv]] failed:
Editing restricted by {{bots}}, {{nobots}} or site's equivalent of {{in use}} template
dewiki Portal:Mathematik/Qualitätssicherung/Archiv/2009/Oktober not saved: Edit to page [[wikipedia:de:Portal:Mathematik/Qualitätssicherung/Archiv/2009/Oktober]] failed:
Editing restricted by {{bots}}, {{nobots}} or site's equivalent of {{in use}} template
dewiki Benutzer:Dhanyavaada/Ortskurve (Systemtheorie) not saved, rejected due to nowiki tags
dewiki Benutzer:TimofeyPnin/Gruppe not saved, rejected due to nowiki tags
dewiki Wikipedia:Redaktion Physik/Qualitätssicherung/Archiv/2009/Dezember not saved: Edit to page [[wikipedia:de:Wikipedia:Redaktion Physik/Qualitätssicherung/Archiv/2009/Dezember]] failed:
Editing restricted by {{bots}}, {{nobots}} or site's equivalent of {{in use}} template
dewiki Benutzer:Steffen 962/Baustelle2 not saved, no changes
dewiki Portal Diskussion:Mathematik/Archiv/2010/1 not saved: Edit to page [[wikipedia:de:Portal Diskussion:Mathematik/Archiv/2010/1]] failed:
Editing restricted by {{bots}}, {{nobots}} or site's equivalent of {{in use}} template
dewiki Benutzer Diskussion:Sk!d not saved, rejected due to nowiki tags
dewiki Wikipedia:Auskunft/Archiv/2010/Woche 08 not saved: Edit to page [[wikipedia:de:Wikipedia:Auskunft/Archiv/2010/Woche 08]] failed:
Editing restricted by {{bots}}, {{nobots}} or site's equivalent of {{in use}} template
dewiki Diskussion:Folge (Mathematik)/Archiv not saved: Edit to page [[wikipedia:de:Diskussion:Folge (Mathematik)/Archiv]] failed:
Editing restricted by {{bots}}, {{nobots}} or site's equivalent of {{in use}} template
dewiki Portal:Mathematik/Qualitätssicherung/Archiv/2010/April not saved, rejected due to nowiki tags
dewiki Siegelscher Halbraum not saved, no changes
dewiki Diskussion:Lineares Gleichungssystem/Archiv/2010 not saved: Edit to page [[wikipedia:de:Diskussion:Lineares Gleichungssystem/Archiv/2010]] failed:
Editing restricted by {{bots}}, {{nobots}} or site's equivalent of {{in use}} template
dewiki Benutzer Diskussion:Roomsixhu/Archiv4b not saved: Edit to page [[wikipedia:de:Benutzer Diskussion:Roomsixhu/Archiv4b]] failed:
Editing restricted by {{bots}}, {{nobots}} or site's equivalent of {{in use}} template
dewiki Benutzer Diskussion:Wilfried Neumaier/Archiv not saved: Edit to page [[wikipedia:de:Benutzer Diskussion:Wilfried Neumaier/Archiv]] failed:
Editing restricted by {{bots}}, {{nobots}} or site's equivalent of {{in use}} template
dewiki Wikipedia:Auskunft/Archiv/2010/Woche 30 not saved: Edit to page [[wikipedia:de:Wikipedia:Auskunft/Archiv/2010/Woche 30]] failed:
Editing restricted by {{bots}}, {{nobots}} or site's equivalent of {{in use}} template
dewiki Benutzer Diskussion:Che Netzer not saved, rejected due to nowiki tags
dewiki Phenylisothiocyanat not saved, no changes
dewiki Hurwitzquaternion not saved, rejected due to nowiki tags
dewiki Benutzer Diskussion:Minderbinder/Archiv/2011 not saved: Edit to page [[wikipedia:de:Benutzer Diskussion:Minderbinder/Archiv/2011]] failed:
Editing restricted by {{bots}}, {{nobots}} or site's equivalent of {{in use}} template
dewiki Diskussion:Skalarprodukt/Archiv/001 not saved: Edit to page [[wikipedia:de:Diskussion:Skalarprodukt/Archiv/001]] failed:
Editing restricted by {{bots}}, {{nobots}} or site's equivalent of {{in use}} template
dewiki Dolbeault-Kohomologie not saved, rejected due to nowiki tags
dewiki Benutzer:Saibot2/News not saved, rejected due to nowiki tags
dewiki Wikipedia:Redaktion Physik/Qualitätssicherung/Archiv/2011/Februar not saved: Edit to page [[wikipedia:de:Wikipedia:Redaktion Physik/Qualitätssicherung/Archiv/2011/Februar]] failed:
Editing restricted by {{bots}}, {{nobots}} or site's equivalent of {{in use}} template
dewiki Benutzer Diskussion:Polarlys/Archiv6 not saved, rejected due to nowiki tags
dewiki Benutzer Diskussion:Toot/Archiv not saved, rejected due to nowiki tags
dewiki Benutzer:Wruedt/Angular velocity not saved, rejected due to nowiki tags
dewiki Benutzer:Peter200/Ausrufer not saved, rejected due to nowiki tags
dewiki Benutzer Diskussion:Christian1985/Archiv/2011 not saved: Edit to page [[wikipedia:de:Benutzer Diskussion:Christian1985/Archiv/2011]] failed:
Editing restricted by {{bots}}, {{nobots}} or site's equivalent of {{in use}} template
dewiki Benutzer Diskussion:Enomine/Ausrufer not saved, rejected due to nowiki tags
dewiki Landau-Theorie not saved, no changes
dewiki Benutzer Diskussion:Lexikon-Duff/Archiv2014 not saved, rejected due to nowiki tags
dewiki Benutzer:Metrokles/Diskussionen not saved, rejected due to nowiki tags
dewiki Benutzer:Ne discere cessa!/Ausrufer not saved, rejected due to nowiki tags
dewiki Diskussion:Dualismus/Archiv/1 not saved: Edit to page [[wikipedia:de:Diskussion:Dualismus/Archiv/1]] failed:
Editing restricted by {{bots}}, {{nobots}} or site's equivalent of {{in use}} template
dewiki Benutzer Diskussion:T3rminat0r/Archiv/1 not saved, rejected due to nowiki tags
dewiki Benutzer Diskussion:Engeltr/Archiv not saved, rejected due to nowiki tags
dewiki Portal:Mathematik/Qualitätssicherung/Archiv/2011/August not saved: Edit to page [[wikipedia:de:Portal:Mathematik/Qualitätssicherung/Archiv/2011/August]] failed:
Editing restricted by {{bots}}, {{nobots}} or site's equivalent of {{in use}} template
dewiki Benutzer Diskussion:Deyass/Archiv not saved, rejected due to nowiki tags
dewiki Benutzer:Kronf/Differenzmenge not saved, rejected due to nowiki tags
dewiki Benutzer Diskussion:Redlinux/alt2012-1 not saved: Edit to page [[wikipedia:de:Benutzer Diskussion:Redlinux/alt2012-1]] failed:
Editing restricted by {{bots}}, {{nobots}} or site's equivalent of {{in use}} template
dewiki Benutzer:Stargamer/Ausrufer not saved, rejected due to nowiki tags
dewiki Kondo-Modell not saved, no changes
dewiki Portal Diskussion:Mathematik/Archiv/2012/1 not saved, rejected due to nowiki tags
dewiki Addition kritischer Fahrzeugstrombelastungen not saved, no changes
dewiki Benutzer Diskussion:LZ6387/Ausrufer-Archiv not saved, rejected due to nowiki tags
dewiki Benutzer Diskussion:Stündle/Archiv1 not saved: Edit to page [[wikipedia:de:Benutzer Diskussion:Stündle/Archiv1]] failed:
Editing restricted by {{bots}}, {{nobots}} or site's equivalent of {{in use}} template
dewiki Benutzer Diskussion:Derschueler/Ausrufer not saved, rejected due to nowiki tags
dewiki Portal:Mathematik/Qualitätssicherung/Archiv/2012/Januar not saved: Edit to page [[wikipedia:de:Portal:Mathematik/Qualitätssicherung/Archiv/2012/Januar]] failed:
Editing restricted by {{bots}}, {{nobots}} or site's equivalent of {{in use}} template
dewiki Benutzer Diskussion:Krokofant/Ausrufer not saved, rejected due to nowiki tags
dewiki Portal:Mathematik/Qualitätssicherung/Archiv/2012/April not saved, rejected due to nowiki tags
dewiki Portal Diskussion:Mathematik/Archiv/2012/2 not saved, rejected due to nowiki tags
dewiki Diskussion:Goldener Schnitt/Archiv/2 not saved, rejected due to nowiki tags
dewiki Benutzer Diskussion:CherryX/Archiv not saved, rejected due to nowiki tags
dewiki Diskussion:Notwendige und hinreichende Bedingung/Archiv not saved: Edit to page [[wikipedia:de:Diskussion:Notwendige und hinreichende Bedingung/Archiv]] failed:
Editing restricted by {{bots}}, {{nobots}} or site's equivalent of {{in use}} template
dewiki Portal:Mathematik/Qualitätssicherung/Archiv/2012/August not saved: Edit to page [[wikipedia:de:Portal:Mathematik/Qualitätssicherung/Archiv/2012/August]] failed:
Editing restricted by {{bots}}, {{nobots}} or site's equivalent of {{in use}} template
dewiki Benutzer:Vogone/Neuigkeiten/Archiv not saved, rejected due to nowiki tags
dewiki Benutzer Diskussion:Geierkrächz/Archiv 3 not saved, rejected due to nowiki tags
dewiki Diskussion:Hilbertraum/Archiv not saved: Edit to page [[wikipedia:de:Diskussion:Hilbertraum/Archiv]] failed:
Editing restricted by {{bots}}, {{nobots}} or site's equivalent of {{in use}} template
dewiki Diskussion:Teilbarkeit/Archiv/1 not saved: Edit to page [[wikipedia:de:Diskussion:Teilbarkeit/Archiv/1]] failed:
Editing restricted by {{bots}}, {{nobots}} or site's equivalent of {{in use}} template
dewiki Benutzer:MichaelSchoenitzer/Maxwell not saved, no changes
dewiki Wikipedia:Auskunft/Archiv/2012/Woche 40 not saved, rejected due to nowiki tags
dewiki Portal Diskussion:Mathematik/Archiv/2012/4 not saved: Edit to page [[wikipedia:de:Portal Diskussion:Mathematik/Archiv/2012/4]] failed:
Editing restricted by {{bots}}, {{nobots}} or site's equivalent of {{in use}} template
dewiki Benutzer Diskussion:Cypernaut/Archiv001 not saved, rejected due to nowiki tags
dewiki Benutzer Diskussion:BuschBohne/Archiv/2013 not saved, rejected due to nowiki tags
dewiki Benutzer Diskussion:Quatschtütenwürger not saved, rejected due to nowiki tags
dewiki Benutzer Diskussion:Elvaube/Archiv/2013/1 not saved, rejected due to nowiki tags
dewiki Benutzer Diskussion:Schreiben/Archiv/2013 not saved, rejected due to nowiki tags
dewiki Benutzer Diskussion:Waerfelu/Archiv 2013 not saved, rejected due to nowiki tags
dewiki Benutzer Diskussion:WhoisWhoME/Archiv/2013 not saved, rejected due to nowiki tags
dewiki Benutzer Diskussion:Lutheraner/Archiv/2013 not saved, rejected due to nowiki tags
dewiki Benutzer Diskussion:Hephaion/Archiv/2013 not saved, rejected due to nowiki tags
dewiki Wikipedia:Redaktion Physik/Qualitätssicherung/Archiv/2013/Januar not saved, rejected due to nowiki tags
dewiki Benutzer Diskussion:Geolina163/Archiv/2013 not saved, rejected due to nowiki tags
dewiki Benutzer Diskussion:Serienfan2010/Archiv/2013 not saved, rejected due to nowiki tags
dewiki Benutzer Diskussion:RacoonyRE/Archiv/2013/II not saved, rejected due to nowiki tags
dewiki Benutzer Diskussion:Aktuarius/Archiv/2013 not saved, rejected due to nowiki tags
dewiki Benutzer Diskussion:Gravitophoton/Archiv/2013 not saved, rejected due to nowiki tags
dewiki Benutzer Diskussion:PaulT/Archiv/2013 not saved, rejected due to nowiki tags
dewiki Benutzer Diskussion:Josef Moser/Archiv/2013 not saved, rejected due to nowiki tags
dewiki Benutzer:JohannesSeraph/Aktuelles/Archiv not saved, rejected due to nowiki tags
dewiki Benutzer Diskussion:Olaf Kosinsky/Archiv/2013 not saved, rejected due to nowiki tags
dewiki Benutzer Diskussion:Times/Archiv/2013 not saved, rejected due to nowiki tags
dewiki Benutzer Diskussion:Yoursmile/Archiv/2013 not saved, rejected due to nowiki tags
dewiki Benutzer Diskussion:O.Koslowski/Archiv/2013/ not saved, rejected due to nowiki tags
dewiki Kongruente Zahl not saved, no changes
dewiki Benutzer Diskussion:Kghbln/Archiv/2013 not saved, rejected due to nowiki tags
dewiki Benutzer Diskussion:Z thomas/Archiv2013 not saved, rejected due to nowiki tags
dewiki Benutzer Diskussion:Ticketautomat/Archiv/2013-1 not saved, rejected due to nowiki tags
dewiki Benutzer Diskussion:Grand-Duc/Archiv/2013 not saved, rejected due to nowiki tags
dewiki Benutzer Diskussion:Hemeier/Archiv/2013 not saved, rejected due to nowiki tags
dewiki Portal:Mathematik/Qualitätssicherung/Archiv/2013/Februar not saved: Edit to page [[wikipedia:de:Portal:Mathematik/Qualitätssicherung/Archiv/2013/Februar]] failed:
Editing restricted by {{bots}}, {{nobots}} or site's equivalent of {{in use}} template
dewiki Benutzer Diskussion:Ambross07/Archiv/2013 not saved, rejected due to nowiki tags
dewiki Benutzer Diskussion:Justus Nussbaum/Archiv2013 not saved, rejected due to nowiki tags
dewiki Benutzer Diskussion:Sjokolade/Archiv/2013 not saved, rejected due to nowiki tags
dewiki Wikipedia:Projektneuheiten/Archiv/2013-1 not saved, rejected due to nowiki tags
dewiki Benutzer Diskussion:Mikered/Archiv/2013 not saved, rejected due to nowiki tags
dewiki Benutzer Diskussion:Madgemacy not saved, rejected due to nowiki tags
dewiki Benutzer Diskussion:HUBA1515/Archiv/2013 not saved, rejected due to nowiki tags
dewiki Benutzer:Geitost/Ausrufer/Archiv/2013 not saved, rejected due to nowiki tags
dewiki Diskussion:Verband (Mathematik)/Archiv not saved: Edit to page [[wikipedia:de:Diskussion:Verband (Mathematik)/Archiv]] failed:
Editing restricted by {{bots}}, {{nobots}} or site's equivalent of {{in use}} template
dewiki Benutzer Diskussion:Belladonna2/Archiv/2013 not saved, rejected due to nowiki tags
dewiki Benutzer Diskussion:Clemensfranz/Archiv/2013 not saved, rejected due to nowiki tags
dewiki Benutzer Diskussion:Funky Man/Archiv/2013 not saved, rejected due to nowiki tags
dewiki Benutzer Diskussion:Jakob Gottfried/Archiv 2013 not saved, rejected due to nowiki tags
dewiki Benutzer Diskussion:Hyperdieter/Archiv/2013/2 not saved, rejected due to nowiki tags
dewiki Benutzer Diskussion:Lukas²³/Archiv/2013/2. Quartal not saved, rejected due to nowiki tags
dewiki Benutzer Diskussion:Inkowik/Archiv/2013/2 not saved, rejected due to nowiki tags
dewiki Benutzer Diskussion:Leoll/Archiv/2013/02 not saved, rejected due to nowiki tags
dewiki Benutzer Diskussion:Hadi/Archiv/2013 not saved, rejected due to nowiki tags
dewiki Benutzer Diskussion:Ptolusque/Archiv/2013 not saved, rejected due to nowiki tags
dewiki Benutzer Diskussion:DCB/Archiv/2013–1 not saved, rejected due to nowiki tags
dewiki Benutzer Diskussion:Nemissimo/Archiv-2013-Q02 not saved, rejected due to nowiki tags
dewiki Benutzer Diskussion:Luther Sloan/Archiv not saved, rejected due to nowiki tags
dewiki Benutzer Diskussion:Pfieffer Latsch/Archiv 2013/2 not saved, rejected due to nowiki tags
dewiki Benutzer Diskussion:Ahellwig/Archiv/2013/2 not saved, rejected due to nowiki tags
dewiki Benutzer Diskussion:VT98Fan/Archiv/2013 not saved, rejected due to nowiki tags
dewiki Benutzer Diskussion:Toter Alter Mann/Archiv/2013 not saved, rejected due to nowiki tags
dewiki Portal:Mathematik/Qualitätssicherung/Archiv/2013/Mai not saved: Edit to page [[wikipedia:de:Portal:Mathematik/Qualitätssicherung/Archiv/2013/Mai]] failed:
Editing restricted by {{bots}}, {{nobots}} or site's equivalent of {{in use}} template
dewiki Wikipedia:Redaktion Physik/Qualitätssicherung/Archiv/2013/Mai not saved, rejected due to nowiki tags
dewiki Benutzer Diskussion:Laberkiste/Archiv/2 not saved, rejected due to nowiki tags
dewiki Benutzer Diskussion:JD/archiv19 not saved, rejected due to nowiki tags
dewiki Benutzer Diskussion:Graphikus/Archiv/2013/Juni not saved, rejected due to nowiki tags
dewiki Benutzer Diskussion:Wikijunkie/Archiv/2013/Juni not saved, rejected due to nowiki tags
dewiki Arithmetische Gruppe not saved, no changes
dewiki Benutzer Diskussion:MaxEddi/Archiv/2013/Juni not saved, rejected due to nowiki tags
dewiki Benutzer Diskussion:Hedwig in Washington/Archiv/2013/06 not saved, rejected due to nowiki tags
dewiki Portal:Mathematik/Qualitätssicherung/Archiv/2013/Juni not saved: Edit to page [[wikipedia:de:Portal:Mathematik/Qualitätssicherung/Archiv/2013/Juni]] failed:
Editing restricted by {{bots}}, {{nobots}} or site's equivalent of {{in use}} template
dewiki Benutzer Diskussion:Avaholic/Archiv/2013/Juni not saved, rejected due to nowiki tags
dewiki Benutzer Diskussion:Leithian/Archiv/2013/Jun not saved, rejected due to nowiki tags
dewiki Benutzer Diskussion:Gamma127/Archiv/2013/2. Quartal not saved, rejected due to nowiki tags
dewiki Benutzer Diskussion:Freak222/Archiv/2013/Juni not saved, rejected due to nowiki tags
dewiki Benutzer Diskussion:Achim Raschka/Archiv/2013/Jun not saved, rejected due to nowiki tags
dewiki Benutzer Diskussion:Catrin/Archiv/2013/Jun not saved, rejected due to nowiki tags
dewiki Benutzer Diskussion:MINT-WIGRIS not saved, rejected due to nowiki tags
dewiki Benutzer Diskussion:Mfb/Archiv not saved, rejected due to nowiki tags
dewiki Portal Diskussion:Mathematik/Archiv/2013/3 not saved, rejected due to nowiki tags
dewiki Wikipedia:Redaktion Physik/Qualitätssicherung/Archiv/2013/August not saved: Edit to page [[wikipedia:de:Wikipedia:Redaktion Physik/Qualitätssicherung/Archiv/2013/August]] failed:
Editing restricted by {{bots}}, {{nobots}} or site's equivalent of {{in use}} template
dewiki Benutzer Diskussion:Ivla/Archiv/bis 2012 not saved, rejected due to nowiki tags
dewiki Benutzer Diskussion:Der Buckesfelder/Archiv/2013/2. Quartal not saved, rejected due to nowiki tags
dewiki Wikipedia:Auskunft/Archiv/2013/Woche 50 not saved: Edit to page [[wikipedia:de:Wikipedia:Auskunft/Archiv/2013/Woche 50]] failed:
Editing restricted by {{bots}}, {{nobots}} or site's equivalent of {{in use}} template
dewiki Benutzer Diskussion:Doc Taxon/Archiv/2013 not saved, rejected due to nowiki tags
dewiki Benutzer Diskussion:Milad A380/Archiv/2013/Juni not saved, no changes
dewiki Benutzer Diskussion:Matthias Süßen/Archiv/2012und13 not saved, rejected due to nowiki tags
dewiki Wikipedia:Redaktion Physik/Qualitätssicherung/Archiv/2014/Januar not saved, rejected due to nowiki tags
dewiki Benutzer Diskussion:Quartl/Archiv2014 not saved, rejected due to nowiki tags
dewiki Wikipedia:Auskunft/Archiv/2014/Woche 05 not saved, rejected due to nowiki tags
dewiki Diskussion:Komplexe Zahl/Archiv/2 not saved, rejected due to nowiki tags
dewiki Smith-Normalform not saved, no changes
dewiki Benutzer Diskussion:Digamma/Archiv/2014 not saved: Edit to page [[wikipedia:de:Benutzer Diskussion:Digamma/Archiv/2014]] failed:
Editing restricted by {{bots}}, {{nobots}} or site's equivalent of {{in use}} template
dewiki Diskussion:Taylorreihe/Archiv not saved: Edit to page [[wikipedia:de:Diskussion:Taylorreihe/Archiv]] failed:
Editing restricted by {{bots}}, {{nobots}} or site's equivalent of {{in use}} template
dewiki Portal:Mathematik/Qualitätssicherung/Archiv/2014/April not saved: Edit to page [[wikipedia:de:Portal:Mathematik/Qualitätssicherung/Archiv/2014/April]] failed:
Editing restricted by {{bots}}, {{nobots}} or site's equivalent of {{in use}} template
dewiki Diskussion:Vektor/Archiv/2 not saved: Edit to page [[wikipedia:de:Diskussion:Vektor/Archiv/2]] failed:
Editing restricted by {{bots}}, {{nobots}} or site's equivalent of {{in use}} template
dewiki Benutzer:Agruwie/Newsliste/Archiv/Archiv2013 not saved, rejected due to nowiki tags
dewiki Hyperelastizität not saved, no changes
dewiki Diskussion:Natürliche Zahl/Archiv/1 not saved: Edit to page [[wikipedia:de:Diskussion:Natürliche Zahl/Archiv/1]] failed:
Editing restricted by {{bots}}, {{nobots}} or site's equivalent of {{in use}} template
dewiki Elastizitätstensor not saved, no changes
dewiki Benutzer:Bebbe/Diskussionsarchiv2013 not saved, rejected due to nowiki tags
dewiki Benutzer:Reseka/Zweitor not saved, no changes
dewiki Benutzer:Sch/Farbvalenz not saved, no changes
dewiki Portal:Mathematik/Qualitätssicherung/Archiv/2016/März not saved: Edit to page [[wikipedia:de:Portal:Mathematik/Qualitätssicherung/Archiv/2016/März]] failed:
Editing restricted by {{bots}}, {{nobots}} or site's equivalent of {{in use}} template
dewiki Portal:Mathematik/Qualitätssicherung/Archiv/2016/April not saved: Edit to page [[wikipedia:de:Portal:Mathematik/Qualitätssicherung/Archiv/2016/April]] failed:
Editing restricted by {{bots}}, {{nobots}} or site's equivalent of {{in use}} template
dewiki Diskussion:Stehwellenverhältnis/Archiv not saved: Edit to page [[wikipedia:de:Diskussion:Stehwellenverhältnis/Archiv]] failed:
Editing restricted by {{bots}}, {{nobots}} or site's equivalent of {{in use}} template
dewiki Seilstatik not saved, no changes
dewiki Wikipedia:Bots/Anfragen/Archiv/2017-1 not saved, rejected due to nowiki tags
dewiki Diskussion:Festigkeitslehre/Archiv not saved: Edit to page [[wikipedia:de:Diskussion:Festigkeitslehre/Archiv]] failed:
Editing restricted by {{bots}}, {{nobots}} or site's equivalent of {{in use}} template
dewiki Portal:Mathematik/Qualitätssicherung/Archiv/2017/Mai not saved: Edit to page [[wikipedia:de:Portal:Mathematik/Qualitätssicherung/Archiv/2017/Mai]] failed:
Editing restricted by {{bots}}, {{nobots}} or site's equivalent of {{in use}} template
dewiki Benutzer:VonHaarberg/Bézierkurve not saved, no changes
dewiki Trugschluss (Mathematik) not saved, no changes
dewiki Vorlage:NumBlk/Doku not saved, rejected due to nowiki tags
dewiki Diskussion:Binomialkoeffizient/Archiv/1 not saved: Edit to page [[wikipedia:de:Diskussion:Binomialkoeffizient/Archiv/1]] failed:
Editing restricted by {{bots}}, {{nobots}} or site's equivalent of {{in use}} template
dewiki Benutzer Diskussion:Koyaanis/Archiv/2013 not saved, rejected due to nowiki tags
dewiki Hyperbelbewegung not saved, no changes
dewiki Matrix-Riccati-Gleichung not saved, no changes
dewiki Wikipedia:Auskunft/Archiv/2018/Woche 10 not saved: Edit to page [[wikipedia:de:Wikipedia:Auskunft/Archiv/2018/Woche 10]] failed:
Editing restricted by {{bots}}, {{nobots}} or site's equivalent of {{in use}} template
dewiki Lagrangesche Inversionsformel not saved, rejected due to nowiki tags
dewiki Griolische Präzession not saved, no changes
dewiki Benutzer:Blaues-Monsterle/Zustandsvektor not saved, rejected due to nowiki tags
elwiki Παράγωγος not saved, rejected due to nowiki tags
elwiki Θεωρία διαταραχών (κβαντική μηχανική) not saved, no changes
elwiki Αριθμοί του Πελ not saved, no changes
elwiki Πρότυπο:Oiint/τεκμηρίωση not saved, rejected due to nowiki tags
elwiki Συνάρτηση Μπέσελ not saved, no changes
elwiki Έλεγχος Λόγου Πιθανοφανειών not saved, no changes
eswiki LaTeX not saved, rejected due to nowiki tags
eswiki Número complejo not saved, rejected due to nowiki tags
eswiki Modelo estándar de la física de partículas not saved, rejected due to nowiki tags
eswiki Conservación de la energía not saved, rejected due to nowiki tags
eswiki Ecuaciones de Maxwell not saved, rejected due to nowiki tags
eswiki Leyes de Newton not saved, rejected due to nowiki tags
eswiki Matriz invertible not saved, no changes
eswiki Sílaba not saved, no changes
eswiki Sumador not saved, no changes
eswiki Cálculo de variaciones not saved, rejected due to nowiki tags
eswiki Teleportación cuántica not saved, no changes
eswiki Triangulación de Delaunay not saved, no changes
eswiki Jacobiano not saved, rejected due to nowiki tags
eswiki Mecánica clásica not saved, rejected due to nowiki tags
eswiki Constante elástica not saved, no changes
eswiki Plasticidad (mecánica de sólidos) not saved, rejected due to nowiki tags
eswiki Función trigonométrica not saved, rejected due to nowiki tags
eswiki Función de Bessel not saved, no changes
eswiki Campo de Yang-Mills not saved, rejected due to nowiki tags
eswiki Algoritmo Needleman-Wunsch not saved, no changes
eswiki Consistencia (lógica) not saved, rejected due to nowiki tags
eswiki Jerarquía aritmética not saved, rejected due to nowiki tags
eswiki Potencia de un conjunto not saved, no changes
eswiki Lenguas tibetano-birmanas not saved, no changes
eswiki Distribución normal multivariante not saved, rejected due to nowiki tags
eswiki Funciones elípticas de Weierstrass not saved, rejected due to nowiki tags
eswiki Análisis del control metabólico not saved, no changes
eswiki Parámetros de transmisión not saved, no changes
eswiki Geometría diferencial de hipersuperficies not saved, rejected due to nowiki tags
eswiki Material ortótropo not saved, no changes
eswiki YCbCr not saved, no changes
eswiki Material de Mooney-Rivlin not saved, rejected due to nowiki tags
eswiki Número de cruce (teoría de grafos) not saved, rejected due to nowiki tags
eswiki Usuario:Fernando montes17/PowerMosfet not saved, no changes
eswiki Número de Pell not saved, no changes
eswiki Usuario:Stocky71/Taller not saved, no changes
eswiki Usuario:Stocky71/Taller1 not saved, no changes
eswiki Codificación superdensa not saved, no changes
eswiki Trigonometría racional not saved, no changes
fawiki قانون هوک not saved, no changes
fawiki الگو:PhysicsNavigation/توضیحات not saved, rejected due to nowiki tags
fawiki ماتریس هادامارد not saved, no changes
fawiki ماتریس وارون not saved, no changes
fawiki مثلث‌بندی دیلانی not saved, no changes
fawiki درخت تصمیم not saved, no changes
fawiki الگوریتم استراسن not saved, no changes
fawiki سری هارمونیک not saved, no changes
fawiki الگوریتم اسمیت واترمن not saved, no changes
fawiki الگو:NumBlk/توضیحات not saved, rejected due to nowiki tags
fiwiki Ristitulo not saved, rejected due to nowiki tags
fiwiki Malline:Oiint/ohje not saved, rejected due to nowiki tags
frwiki Pi not saved, no changes
frwiki Transformée en cosinus discrète not saved, no changes
frwiki Courbe de Bézier not saved, no changes
frwiki Courbe elliptique not saved, rejected due to nowiki tags
frwiki Transformation de Laplace not saved, rejected due to nowiki tags
frwiki Problème SAT not saved, no changes
frwiki Loi de Hooke not saved, no changes
frwiki Matrice inversible not saved, no changes
frwiki Norme (mathématiques) not saved, rejected due to nowiki tags
frwiki Matrice de Hadamard not saved, no changes
frwiki Discussion:Courbe de Bézier not saved, no changes
frwiki YCbCr not saved, no changes
frwiki Carré gréco-latin not saved, no changes
frwiki Mouvement de Lagrange de la toupie not saved, no changes
frwiki Analyse factorielle des correspondances not saved, rejected due to nowiki tags
frwiki Sous-espace stable not saved, no changes
frwiki Point critique (mathématiques) not saved, rejected due to nowiki tags
frwiki Revêtement (mathématiques) not saved, rejected due to nowiki tags
frwiki Complément de Schur not saved, no changes
frwiki Algèbre géométrique (structure) not saved, rejected due to nowiki tags
frwiki Divergence (analyse vectorielle) not saved, rejected due to nowiki tags
frwiki Wikipédia:Atelier TeX/Exemples not saved, rejected due to nowiki tags
frwiki Théorèmes de l'alternative not saved, no changes
frwiki Notation de Voigt not saved, no changes
frwiki Triangulation de Delaunay not saved, no changes
frwiki Quantification de Landau not saved, no changes
frwiki Utilisateur:Bhoessen/Bac a sable not saved, no changes
frwiki Modèle:Exemple/Documentation not saved, rejected due to nowiki tags
frwiki Utilisateur:As de carreau/Brouillon/aidemath not saved, rejected due to nowiki tags
frwiki Automate quantique not saved, rejected due to nowiki tags
frwiki Systèmes multidimensionnels not saved, no changes
glwiki Símbolo not saved, no changes
glwiki Produto escalar not saved, no changes
glwiki Sistema de coordenadas not saved, no changes
glwiki Interacción electromagnética not saved, no changes
glwiki Conservación da enerxía not saved, no changes
glwiki Deformación not saved, no changes
glwiki Número complexo not saved, no changes
glwiki Par ordenado not saved, no changes
glwiki Placa de cimentación not saved, no changes
glwiki Principio de Arquímedes not saved, no changes
glwiki Gradiente not saved, no changes
glwiki Ecuación de onda not saved, no changes
glwiki Operador de Laplace not saved, no changes
glwiki Onda mecánica not saved, no changes
glwiki Vector de onda not saved, no changes
glwiki Derivada parcial not saved, no changes
glwiki Electrónica dixital not saved, no changes
glwiki Distribución normal multivariante not saved, no changes
glwiki Espazo de Hilbert not saved, no changes
glwiki Plano (xeometría) not saved, no changes
glwiki Ecuación en derivadas parciais not saved, no changes
glwiki Fórmula de Euler not saved, no changes
glwiki Cálculo de variacións not saved, no changes
glwiki Independencia linear not saved, no changes
glwiki Aplicación linear not saved, no changes
glwiki Base (álxebra linear) not saved, no changes
glwiki Identidade (matemáticas) not saved, no changes
glwiktionary neurite not saved: Edit to page [[wiktionary:gl:neurite]] failed:
Username "Texvc2LaTeXBot@texbot" does not have read permissions on wiktionary:gl
.Incorrect username or password entered. Please try again.
hewiki רשת עצבית מלאכותית not saved, no changes
hewiki התפלגות נורמלית not saved, rejected due to nowiki tags
hewiki ויקיפדיה:הכה את המומחה/ארכיון145 not saved, rejected due to nowiki tags
hewiki ויקיפדיה:הכה את המומחה/ארכיון185 not saved, rejected due to nowiki tags
hewiki תורת ההומולוגיה not saved, no changes
hewiki Threefish not saved, rejected due to nowiki tags
hewiki תבנית:מספור צדי/תיעוד not saved, rejected due to nowiki tags
hewiki משפט לז'נדר על משולשים כדוריים not saved, no changes
hewiktionary שיחת משתמש:Ariel1024 not saved, rejected due to nowiki tags
hewiktionary שיחת משתמש:Ariel1024/ארכיון 4 not saved, rejected due to nowiki tags
hewiktionary שיחת משתמש:Ariel1024/ארכיון 7 not saved, rejected due to nowiki tags
huwiki Kvaterniók not saved, rejected due to nowiki tags
huwiki Vita:Gödel ontológiai istenérve/Archív01 not saved, rejected due to nowiki tags
huwiki Modális logika not saved, rejected due to nowiki tags
huwiki Szerkesztővita:Elteszem not saved, rejected due to nowiki tags
huwiki Sablon:NumBlk/doc not saved, rejected due to nowiki tags
huwiki Lambert-féle W függvény not saved, rejected due to nowiki tags
idwiki Leonhard Euler not saved, rejected due to nowiki tags
idwiki Persamaan not saved, rejected due to nowiki tags
idwiki Bantuan:Menampilkan rumus not saved, rejected due to nowiki tags
idwiki Turunan kedua not saved, rejected due to nowiki tags
idwiki Posisi (vektor) not saved, rejected due to nowiki tags
idwiki Produk skalar not saved, rejected due to nowiki tags
itwiki Forza di Lorentz not saved, rejected due to nowiki tags
itwiki Discussione:Teoria perturbativa not saved, no changes
itwiki Triangolo di Tartaglia not saved, no changes
itwiki Utente:SSISMAAM/Metodi di &quot;falsa posizione&quot; not saved, no changes
itwiki Metodo di falsa posizione in Fibonacci not saved, no changes
itwiki Legge di Hess not saved, no changes
itwiki Dimensione (spazio vettoriale) not saved, rejected due to nowiki tags
itwiki Analisi dei circuiti elettrici not saved, no changes
itwiki Apparecchio triassiale not saved, no changes
itwiki Edometro not saved, no changes
itwiki Equazione Wheeler-DeWitt not saved, no changes
itwiki Discussioni Wikipedia:Convenzioni di stile/Matematica not saved, rejected due to nowiki tags
itwiki Coordinate baricentriche not saved, no changes
itwiki Formulazione debole not saved, rejected due to nowiki tags
itwiki Ottica matriciale not saved, no changes
itwiki Fascio gaussiano not saved, no changes
itwiki Progetto:Matematica/Archivio2 not saved, rejected due to nowiki tags
itwiki Buca di potenziale not saved, no changes
itwiki Matrice di Walsh not saved, no changes
itwiki Matrice di Hadamard not saved, no changes
itwiki Gradino di potenziale not saved, no changes
itwiki Coefficiente di dilatazione adiabatica not saved, rejected due to nowiki tags
itwiki MOSFET di potenza not saved, no changes
itwiki Utente:Renamed user gxQITgCwp5/netanalysis not saved, no changes
itwiki Algoritmo di Smith-Waterman not saved, no changes
itwiki Teoria della schedulazione not saved, no changes
itwiki Norma operatoriale not saved, rejected due to nowiki tags
itwiki Wikipedia:Pagine da cancellare/Associazione bancaria sammarinese not saved: Page [[wikipedia:it:Wikipedia:Pagine da cancellare/Associazione bancaria sammarinese]] is locked.
itwiki Cristallo temporale not saved, no changes
nlwiki Ring (wiskunde) not saved, rejected due to nowiki tags
nlwiki Help:TeX in Wikipedia not saved, rejected due to nowiki tags
nlwiki Parallellepipedum not saved, no changes
nlwiki P-adisch getal not saved, rejected due to nowiki tags
nlwiki Hempel-oppenheimschema not saved, no changes
nlwiki Gebruiker:DeSinT/Zandbak/Wiskundige formules voor misbruik ten behoeve van studiedoeleinden not saved, no changes
nlwiki Hadamardmatrix not saved, no changes
nlwiki Hypergeometrische functie not saved, rejected due to nowiki tags
nlwiki Struve-functie not saved, no changes
plwiki Rachunek predykatów pierwszego rzędu not saved, rejected due to nowiki tags
plwiki Pomoc:Wzory not saved, rejected due to nowiki tags
plwiki Prosta not saved, no changes
plwiki Równanie Schrödingera not saved, no changes
plwiki Dyskusja wikipedysty:Arcadus~plwiki not saved, rejected due to nowiki tags
plwiki Kwantowy oscylator harmoniczny not saved, no changes
plwiki Wikipedia:Kawiarenka pod Wesołym Wikipedystą/Archiwum 3 not saved, rejected due to nowiki tags
plwiki Magnetyzacja not saved, no changes
plwiki Macierz klatkowa not saved, no changes
plwiki Czwórnik (elektryka) not saved, no changes
plwiki Rachunek różnicowy not saved, no changes
plwiki Wikipedysta:Xpicto/brudnopis not saved, rejected due to nowiki tags
plwiki Wikipedysta:Wydma2000/brudnopis not saved, rejected due to nowiki tags
plwiki Język zdaniowy not saved, rejected due to nowiki tags
plwiki Ortotropia not saved, no changes
plwiki Wikipedia:Propozycje do Dobrych Artykułów/Przestrzeń Foka not saved, rejected due to nowiki tags
rowiki Grăsime not saved, no changes
rowiki Aldehidă not saved, no changes
rowiki Utilizator:Victor Blacus/Texte/01 not saved, rejected due to nowiki tags
rowiki Format:Navigare Mecanică/doc not saved, rejected due to nowiki tags
rowiki Funcție algebrică de gradul al treilea not saved, no changes
rowiki Identitățile calculului vectorial not saved, no changes
rowiki Utilizator:Jobava-ro/ciorne/Orbită not saved, rejected due to nowiki tags
rowiki Format:Oiint/doc not saved, rejected due to nowiki tags
rowiki Format:Bigmath/doc not saved, rejected due to nowiki tags
ruwiki Википедия:Формулы not saved, rejected due to nowiki tags
ruwiki Вещественное число not saved, rejected due to nowiki tags
ruwiki Описанная окружность not saved, no changes
ruwiki Градиент not saved, no changes
ruwiki Механическая работа not saved, rejected due to nowiki tags
ruwiki Прямоугольная система координат not saved, rejected due to nowiki tags
ruwiki Оператор набла not saved, rejected due to nowiki tags
ruwiki Дивергенция not saved, no changes
ruwiki Латинский квадрат not saved, no changes
ruwiki Конденсация (химия) not saved, no changes
ruwiki HSV (цветовая модель) not saved, no changes
ruwiki Статистический критерий not saved, no changes
ruwiki Закон электромагнитной индукции Фарадея not saved, rejected due to nowiki tags
ruwiki YUV not saved, no changes
ruwiki Гармонический ряд not saved, no changes
ruwiki Цилиндрические параболические координаты not saved, no changes
ruwiki Обсуждение:Алкены not saved, rejected due to nowiki tags
ruwiki Цветовая субдискретизация not saved, no changes
ruwiki Гармоническое число not saved, no changes
ruwiki BMW Hash function not saved, no changes
ruwiki Участник:Andrey Case/Черновик not saved, no changes
ruwiki Функция Уолша not saved, no changes
ruwiki Фуксова особая точка not saved, rejected due to nowiki tags
ruwiki Участник:Sergey feo/Черновик not saved, rejected due to nowiki tags
ruwiki YCbCr not saved, no changes
ruwiki Схема Асмута — Блума not saved, no changes
ruwiki Шаблон:Нумерованная формула/doc not saved, rejected due to nowiki tags
ruwiki Участник:Denis73/Шаблоны/Шаблон:Черновик/doc not saved, rejected due to nowiki tags
ruwiki Dragon (шифр) not saved, no changes
ruwiki Тест невложенных моделей not saved, no changes
ruwiki Цифровое видео not saved, no changes
ruwiki Число Пелля not saved, no changes
ruwiki Многочлены Гегенбауэра not saved, no changes
ruwiki Участник:Samal/Копии ВП-текстов/Справка/Правила/Принятые/Википедия:Формулы not saved, rejected due to nowiki tags
ruwiki Яма с бесконечными стенками not saved, no changes
ruwiki Квадратурный зеркальный фильтр not saved, no changes
ruwiki Позиционная весовая матрица not saved, no changes
ruwiki Обсуждение участника:Alexei Kopylov/Архив not saved, rejected due to nowiki tags
ruwiki Последовательность Хофштадтера not saved, no changes
ruwiki Спектральная последовательность not saved, no changes
ruwiki Функция активации not saved, no changes
svwiki Ordinär differentialekvation not saved, no changes
svwiki Lagrangemultiplikator not saved, no changes
svwiki Hermites rotansats not saved, no changes
svwiki Hadamardmatris not saved, no changes
svwiki Diskussion:Komplext mått not saved: Page [[wikipedia:sv:Diskussion:Komplext mått]] was not saved.
svwiki Diskussion:Ortogonalmatris not saved: Page [[wikipedia:sv:Diskussion:Ortogonalmatris]] was not saved.
svwiki Inverterbar matris not saved, no changes
svwiki Användare:Svjo/sandlåda not saved, no changes
svwiki Gegenbauerpolynom not saved, no changes
trwiki Maxwell denklemleri not saved, no changes
trwiki Rasyonel sayılar not saved, no changes
trwiki MD5 not saved, no changes
trwiki Karmaşık sayı not saved, no changes
trwiki Eşküme beliti not saved, no changes
trwiki Lorentz kuvveti not saved, no changes
trwiki Vektör hesabı not saved, no changes
trwiki Doğrusal denklem dizgesi not saved, no changes
trwiki De Morgan yasası not saved, no changes
trwiki Açısal hız not saved, no changes
trwiki Matematik sembolleri not saved, no changes
trwiki Cook-Levin teoremi not saved, no changes
trwiki Şablon:NumBlk/belge not saved, rejected due to nowiki tags
trwiki Clique NP-Tam'dır. not saved, no changes
trwiki Bulanık küme not saved, no changes
trwiki Faz açısı not saved, no changes
trwiki Çevrel çember not saved, no changes
trwiki Süreklilik denklemi not saved, no changes
trwiki Ayar teorisi not saved, no changes
trwiki Kütle akış hızı not saved, no changes
trwiki Lorentz dönüşümü not saved, rejected due to nowiki tags
trwiki Simpleks not saved, no changes
trwiki Galile dönüşümü not saved, no changes
trwiki Küresel üçgenler üzerinde Legendre teoremi not saved, no changes
trwiki Elektromanyetik indüksiyon not saved, no changes
trwiki Üstel gönderme not saved, no changes
trwiki Bağlantı (matematik) not saved, no changes
trwiki Kesirli analiz not saved, no changes
trwiki Cartan biçimciliği (fizik) not saved, no changes
trwiki Matris toplamı not saved, no changes
trwiki İki elektron atomu not saved, no changes
trwiki Atomun Vektör Modeli not saved, no changes
trwiki Elektromanyetizmanın eşdeğişim formülasyonu not saved, no changes
trwiki Termodinamik üçüncü kanunu not saved, no changes
trwiki Gibbs fenomeni not saved, no changes
trwiki Yerçekim alanı not saved, no changes
trwiki Yerçekimi alanı not saved, no changes
trwiki SHA-2 not saved, no changes
trwiki Yer çekimi için Gauss yasası not saved, no changes
trwiki Kepler Yörüngesi not saved, rejected due to nowiki tags
trwiki Spektral Akı Yoğunluğu not saved, no changes
trwiki Medyan not saved, no changes
trwiki Kuadrupol not saved, rejected due to nowiki tags
trwiki Fourier optiği not saved, no changes
trwiki Kullanıcı:Məhəmməd Əli 04.06.04 not saved, no changes
trwiki Doğruluk değeri not saved, no changes
trwiki Mantık bağlacı not saved, no changes
trwiki Isı sığası oranı not saved, no changes
trwiki Hessian matrisi not saved, no changes
ukwiki Кон'юнкція not saved, no changes
ukwiki Принцип вибуху not saved, no changes
ukwiki Додавання not saved, no changes
ukwiki Дійсне число not saved, no changes
ukwiki Перетин множин not saved, no changes
ukwiki Дистрибутивність not saved, no changes
ukwiki Декартів добуток множин not saved, no changes
ukwiki Антисиметричне відношення not saved, rejected due to nowiki tags
ukwiki Транзитивне відношення not saved, no changes
ukwiki Скалярний добуток not saved, no changes
ukwiki Ґратка (порядок) not saved, no changes
ukwiki Група (математика) not saved, no changes
ukwiki Лінеаризація not saved, no changes
ukwiki Голоморфна функція not saved, no changes
ukwiki Теорія множин Цермело — Френкеля not saved, no changes
ukwiki Список простих чисел not saved, no changes
ukwiki Многочлен not saved, no changes
ukwiki Механіка Лагранжа not saved, no changes
ukwiki Спектр оператора not saved, no changes
ukwiki Гамільтоніан not saved, no changes
ukwiki Поле (алгебра) not saved, no changes
ukwiki Гільбертів простір not saved, no changes
ukwiki Афінна геометрія not saved, no changes
ukwiki Ермітів скалярний добуток not saved, no changes
ukwiki Ейлерові кути not saved, no changes
ukwiki Адвекція not saved, no changes
ukwiki Зведена маса not saved, no changes
ukwiki Числення висловлень not saved, no changes
ukwiki Генератор псевдовипадкових чисел not saved, no changes
ukwiki Ряд (математика) not saved, no changes
ukwiki Векторне числення not saved, no changes
ukwiki Білінійна форма not saved, no changes
ukwiki Поверхня not saved, no changes
ukwiki Часткова похідна not saved, no changes
ukwiki Проекційна матриця not saved, no changes
ukwiki Геометрія Лобачевського not saved, no changes
ukwiki Логічна імплікація not saved, no changes
ukwiki Кватерніони і повороти простору not saved, no changes
ukwiki Квантор загальності not saved, no changes
ukwiki Квантор існування not saved, no changes
ukwiki Матриці Адамара not saved, no changes
ukwiki Відношення переваги not saved, no changes
ukwiki Матриця повороту not saved, no changes
ukwiki Періодична функція not saved, no changes
ukwiki Теорема Гурвіца про композитні алгебри not saved, rejected due to nowiki tags
ukwiki Нерівність not saved, no changes
ukwiki Матриця Якобі not saved, no changes
ukwiki Система лінійних алгебраїчних рівнянь not saved, no changes
ukwiki Сфера Рімана not saved, no changes
ukwiki Ріманова поверхня not saved, no changes
ukwiki Нерівність Мінковського not saved, no changes
ukwiki Нерівність Гельдера not saved, no changes
ukwiki Циклічна група not saved, no changes
ukwiki Октоніони not saved, no changes
ukwiki Перетворення Келі not saved, no changes
ukwiki Алгебра Кліфорда not saved, no changes
ukwiki Теорема Холла not saved, no changes
ukwiki Стрілка Пірса not saved, no changes
ukwiki Виключна диз'юнкція not saved, no changes
ukwiki Таблиці істинності not saved, no changes
ukwiki Закон суперечності not saved, no changes
ukwiki Кон'юнктивна нормальна форма not saved, no changes
ukwiki Диз'юнктивна нормальна форма not saved, no changes
ukwiki Правило резолюцій not saved, no changes
ukwiki Теорема Кронекера — Капеллі not saved, no changes
ukwiki HSV not saved, no changes
ukwiki Алгебрично замкнуте поле not saved, no changes
ukwiki Результант not saved, no changes
ukwiki Логічні елементи not saved, no changes
ukwiki Фільтр (порядок) not saved, no changes
ukwiki Група Лі not saved, no changes
ukwiki Диференціальна алгебра not saved, no changes
ukwiki Квантова хромодинаміка not saved, no changes
ukwiki Алгебричне розширення not saved, no changes
ukwiki Просте розширення поля not saved, no changes
ukwiki Група Галуа not saved, no changes
ukwiki Еліптичні функції Вейєрштрасса not saved, no changes
ukwiki Ієрархія Чомскі not saved, no changes
ukwiki Кільце головних ідеалів not saved, no changes
ukwiki Перетворення Мебіуса not saved, no changes
ukwiki Індекс контура відносно точки not saved, no changes
ukwiki Статистичний критерій not saved, no changes
ukwiki Теорема Рімана про відображення not saved, no changes
ukwiki Диференціальне рівняння з частинними похідними not saved, no changes
ukwiki Кільце Дедекінда not saved, no changes
ukwiki Передпорядок not saved, no changes
ukwiki Верхня та нижня межа not saved, no changes
ukwiki Модулярна ґратка not saved, no changes
ukwiki Ґратка з діленням not saved, no changes
ukwiki Алгоритм Брезенхейма not saved, no changes
ukwiki Комплексна площина not saved, no changes
ukwiki Група кватерніона not saved, no changes
ukwiki Ряди Ейзенштейна not saved, no changes
ukwiki Диференційовний многовид not saved, no changes
ukwiki Кільце многочленів not saved, no changes
ukwiki Рівняння Кортевега – де Фріза not saved, no changes
ukwiki Пошук найдовшої спільної підпослідовності not saved, no changes
ukwiki Контрапозиція not saved, no changes
ukwiki Показник адіабати not saved, no changes
ukwiki Амеба (алгебрична геометрія) not saved, no changes
ukwiki Криза основ математики not saved, no changes
ukwiki Аргументи максимізації та мінімізації not saved, no changes
ukwiki Шаблон:NumBlk/Документація not saved, rejected due to nowiki tags
ukwiki Стара квантова теорія not saved, no changes
ukwiki Шаблон:Класична механіка not saved, no changes
ukwiki Аксіомна схема виділення not saved, no changes
ukwiki Загальна теорія множин not saved, no changes
ukwiki Шарування not saved, no changes
ukwiki Досконала кон'юнктивна нормальна форма not saved, no changes
ukwiki Двоїстість Пуанкаре not saved, no changes
ukwiki Умовна диз'юнкція not saved, no changes
ukwiki Значення форми not saved, no changes
ukwiki Друга квадратична форма not saved, no changes
ukwiki Задача Штейнера not saved, no changes
ukwiki Орисфера not saved, no changes
ukwiki Користувач:YP/пісочниця not saved, no changes
ukwiki Темпоральна логіка not saved, no changes
ukwiki Поліноміальні моделі цифрових пристроїв not saved, no changes
ukwiki Метод резолюції not saved, no changes
ukwiki Мультиіндекс not saved, no changes
ukwiki Модель вільних електронів not saved, no changes
ukwiki Закон електромагнітної індукції Фарадея not saved, no changes
ukwiki Квантовий вентиль not saved, no changes
ukwiki Число Пелля not saved, no changes
ukwiki Точна послідовність not saved, no changes
ukwiki Перевірка відношенням правдоподібностей not saved, no changes
ukwiki Заперечення як відмова not saved, no changes
ukwiki ВЛВ-резолюція not saved, no changes
ukwiki Шило Володимир Петрович not saved, no changes
ukwiki Ланцюг (алгебрична топологія) not saved, no changes
ukwiki Ординалістська (порядкова) корисність not saved, no changes
ukwiki Обговорення Вікіпедії:Фільтр редагувань/Архів (2016 рік) not saved, no changes
ukwiki Симплектичний многовид not saved, no changes
ukwiki Теорія де Бройля — Бома not saved, no changes
ukwiki Бар'єрна функція not saved, no changes
ukwiki Експонента матриці not saved, no changes
ukwiki Приєднане представлення групи Лі not saved, no changes
ukwiki Похідна за напрямком not saved, no changes
ukwiki Дериваційні формули Вейнгартена not saved, no changes
ukwiki Коваріантна похідна not saved, no changes
ukwiki Когомологія де Рама not saved, no changes
ukwiki Трикутна функція not saved, no changes
ukwiki Тригонометричний многочлен not saved, no changes
ukwiki Функція Уолша not saved, no changes
ukwiki Програмування наборами відповідей not saved, no changes
ukwiki Теорема Монтеля not saved, no changes
ukwiki Теорема Рунге not saved, no changes
ukwiki Теорема Сохоцького — Вейєрштраса not saved, no changes
ukwiki Теорема Міттаг-Лефлера not saved, no changes
ukwiki Теорема Вейєрштраса про цілі функції not saved, no changes
ukwiki Додавання матриць not saved, no changes
ukwiki Гомоморфізм кілець not saved, no changes
ukwiki Субгармонічна функція not saved, no changes
ukwiki Плюрігармонічна функція not saved, no changes
ukwiki Плюрісубгармонічна функція not saved, no changes
ukwiki Полікруг not saved, no changes
ukwiki Область Рейнхарта not saved, no changes
ukwiki Комплексний многовид not saved, no changes
ukwiki Майже комплексна структура not saved, no changes
ukwiki Підалгебра Картана not saved, no changes
ukwiki Комплексифікація not saved, no changes
ukwiki Компактна група Лі not saved, no changes
ukwiki Симплектична група not saved, no changes
ukwiki Передавальна функція штучного нейрона not saved, no changes
ukwiki Рівняння Блоха not saved, no changes
ukwiki Коефіцієнт кластеризації not saved, no changes
ukwiki Обчислювальна гідродинаміка для зміни фази матеріалів not saved, no changes
ukwiki Мінімальна довжина повідомлення not saved, no changes
ukwiki Символічний степінь простого ідеала not saved, no changes
ukwiki Поповнення (комутативна алгебра) not saved, no changes
ukwiki Асоційований простий ідеал not saved, no changes
ukwiki Теорема Джекобсона про щільність not saved, no changes
ukwiki Лінійна алгебрична група not saved, no changes
ukwiki Принцип збереження області not saved, no changes
ukwiki Принцип максимуму модуля not saved, no changes
ukwiki Локальний гомеоморфізм not saved, no changes
ukwiki Нормальна сім'я функцій not saved, no changes
ukwiki Збалансована множина not saved, no changes
ukwiki Нерівність Ерміта — Адамара not saved, no changes
ukwiki Середнє логарифмічне not saved, no changes
ukwiki Теорема Діріхле про оборотні елементи not saved, no changes
ukwiki Локальне поле not saved, no changes
ukwiki Мультиплікатор Кейнса not saved, no changes
ukwiki Теорема Коші про багатогранники not saved, no changes
ukwiki Напівпроста алгебра Лі not saved, no changes
ukwiki Друга похідна not saved, no changes
ukwiki Теорія Серфа not saved, no changes
ukwiki Границя (теорія категорій) not saved, no changes
ukwiki Добуток схем not saved, no changes
viwiki Bản mẫu:Bigmath/doc not saved, rejected due to nowiki tags
zhwiki 胡克定律 not saved, no changes
zhwiki Help:数学公式 not saved, rejected due to nowiki tags
zhwiki 直线 not saved, no changes
zhwiki 变分法 not saved, rejected due to nowiki tags
zhwiki 自然演绎 not saved, no changes
zhwiki 超运算 not saved, no changes
zhwiki Template:NumBlk/doc not saved, rejected due to nowiki tags
zhwiki 二端口网络 not saved, no changes
zhwiki Wikipedia:互助客栈/方针/存档/2010年9月 not saved, no changes
zhwiki 盖根鲍尔多项式 not saved, no changes
zhwiki 库利－图基快速傅里叶变换算法 not saved, no changes
zhwiki 欧拉方程 (流体动力学) not saved, no changes
zhwiki 敏感度編碼技術 not saved, no changes
zhwiki Template:Oiint/doc not saved, rejected due to nowiki tags
zhwiki 光線轉換矩陣分析 not saved, no changes
zhwiki 逆小波轉換 not saved, no changes
zhwiki 史密斯-沃特曼算法 not saved, no changes
zhwiki 激活函数 not saved, no changes
zhwiki 羅森布羅克系統矩陣 not saved, no changes
zhwiki 基函數 not saved, no changes
